"sample"	"simpson"
"EpN_BB028"	0.879237444684362
"EpN_BB090"	0.829822169590701
"EpN_BB209"	0.748652004033112
"EpT_BB028"	0.924213782436845
"EpT_BB090"	0.798840695905436
"EpT_BB165"	0.643516207575318
"EpT_BB209"	0.500837579147546
"EpT_BB217"	0.862026310506489
"EpT_BB230"	0.721360038010175
