sample	1	2	3	4	5	6	7	8	9	10	11	12	13	14	15	16	17	18	19	20	21	22	23	24	25
EpN_BB028	2	28	32	56	48	59	13	0	16	6	27	234	25	22	9	70	37	220	25	11	95	0	6	0	6
EpN_BB090	0	4	3	65	4	81	4	11	2	4	0	0	3	1	0	2	0	0	0	6	1	0	60	45	21
EpN_BB209	10	250	128	809	478	92	26	42	14	3	28	0	43	25	4	5	0	2	0	9	2	0	1	0	0
EpT_BB028	0	7	16	10	11	22	13	0	7	1	13	39	7	7	2	22	8	24	20	7	16	0	1	0	0
EpT_BB090	8	29	14	20	6	325	1	69	1	2	8	2	1	0	3	13	2	1	6	25	0	2	331	165	417
EpT_BB165	8	22	14	13	4	40	49	1	17	214	3	1	15	0	291	634	15	6	2114	99	22	182	0	0	0
EpT_BB209	1606	2988	67	16	11	86	8	12	0	1	4	0	0	0	0	1	0	0	0	1	0	0	3	0	0
EpT_BB217	1	82	13	48	108	32	40	4	73	333	170	9	11	116	57	24	0	0	24	16	1	0	2	0	0
EpT_BB230	2	5	6	68	0	60	39	0	5	44	2	8	262	0	9	458	23	11	626	1336	5	4	1	0	2
