"X139La_H3K27me3"	"X140Ce_Beads"	"X141Pr_K5"	"X142Nd_PTEN"	"X143Nd_CD44"	"X144Nd_K8K18"	"X145Nd_CD31"	"X146Nd_FAP"	"X147Sm_cMYC"	"X148Nd_SMA"	"X149Sm_CD24"
8.28624248504639	0	0.977490723133087	20.1057472229004	2.3949887752533	17.5217895507812	6.30579662322998	3.80322408676147	25.960901260376	3.40327095985413	8.09058380126953
0.980149805545807	0	0	12.2346677780151	62.0346565246582	0	8.76147937774658	0.00770275481045246	46.2224922180176	5.60888481140137	3.41250991821289
1.6054482460022	0	0	53.8572540283203	67.0302581787109	2.61676621437073	6.92992067337036	10.9021129608154	71.0937118530273	3.4532618522644	1.08026921749115
9.22391128540039	1.08568322658539	2.92912125587463	51.4763641357422	13.9761333465576	2.90334916114807	5.93717050552368	1.16255283355713	40.0604553222656	27.6455268859863	14.9884090423584
6.59192562103271	1.19634699821472	2.37434029579163	40.3616981506348	110.400756835938	9.00994873046875	5.6221170425415	7.21328163146973	86.587287902832	10.0498428344727	2.99464750289917
18.3791484832764	0.584615290164948	10.4769983291626	39.0872573852539	23.6935081481934	0.902736663818359	9.54251861572266	7.11908912658691	46.9018363952637	11.5742626190186	106.62629699707
18.5595741271973	0	0	79.2932968139648	5.44252157211304	9.26369380950928	7.95432901382446	8.88134860992432	106.762176513672	11.5329875946045	56.8774795532227
5.27920436859131	0.535597324371338	0	24.853723526001	68.4495315551758	5.48466539382935	11.9151926040649	1.00892460346222	48.2634086608887	0	1.44085645675659
12.0453071594238	3.55670499801636	1.1507351398468	76.2233581542969	20.5169258117676	47.0295906066895	5.67938137054443	5.34996843338013	135.445648193359	29.2676620483398	86.3264694213867
7.76183938980103	0.480007439851761	0.156764641404152	30.8318672180176	35.7544631958008	2.97926425933838	13.9922199249268	10.2127666473389	229.073272705078	0	10.8157520294189
23.7108917236328	1.68883514404297	1.14387118816376	65.3367385864258	25.9839820861816	41.0600509643555	19.678129196167	7.82547903060913	135.780090332031	30.9990634918213	16.2692012786865
18.5502605438232	0.84416675567627	0.495242238044739	41.4710693359375	12.2117033004761	5.38604116439819	7.3740406036377	9.84823513031006	55.1101684570312	9.18331623077393	4.7236008644104
18.981632232666	3.17792415618896	0	41.7736663818359	157.381500244141	13.1330623626709	7.09228610992432	43.8277282714844	198.543426513672	28.6741847991943	5.88673734664917
20.1323585510254	0	0.813848257064819	32.392276763916	4.57953977584839	0	7.62902545928955	5.44569778442383	38.0549354553223	4.76905822753906	11.6576719284058
15.0346374511719	0.101324133574963	0	92.029541015625	16.572717666626	0	18.6615962982178	22.4411964416504	291.870239257812	23.7697048187256	5.30212783813477
2.5896942615509	0	0.90621942281723	84.5693817138672	9.96547508239746	159.118927001953	29.7982349395752	19.5891380310059	185.203079223633	18.7280807495117	51.8388633728027
12.7420530319214	4.58493995666504	0.796921074390411	19.6960468292236	92.6669692993164	0	3.60904097557068	4.10035037994385	394.972717285156	17.2762546539307	4.04301977157593
3.98029589653015	1.77778029441833	0	58.3179817199707	126.791511535645	9.83824062347412	12.5033226013184	5.69550848007202	150.144836425781	12.4155178070068	1.04546201229095
36.147388458252	1.738325715065	25.9978809356689	103.091468811035	97.2116851806641	10.2921810150146	24.479772567749	13.8970060348511	186.811676025391	17.4427700042725	46.8534698486328
5.68315935134888	0	7.89905834197998	42.4234809875488	13.3515796661377	5.91595458984375	5.86631059646606	16.7774429321289	88.857780456543	11.8858070373535	35.6289825439453
10.9917545318604	0	2.0031886100769	64.3964004516602	129.195541381836	0	13.6883983612061	0	149.831237792969	14.020040512085	8.56725978851318
17.3171291351318	3.46163082122803	0.872200846672058	63.019157409668	141.250503540039	14.5124378204346	13.9960823059082	18.6270809173584	136.386840820312	11.6913604736328	8.79904079437256
10.9461898803711	1.50439381599426	0.677769422531128	70.4867172241211	11.4177694320679	18.0183219909668	10.8237352371216	19.9914512634277	105.813133239746	12.5766038894653	46.7083129882812
2.71454763412476	0	0	25.033224105835	90.1982955932617	0.307218760251999	9.86585998535156	7.02806663513184	86.2607269287109	7.79932689666748	0.774830043315887
2.14815878868103	3.64848256111145	2.80066537857056	100.964363098145	17.9773654937744	21.4307155609131	42.6879272460938	39.6642265319824	204.091247558594	21.0015106201172	86.3356018066406
26.7612438201904	0	0	71.2246932983398	131.780151367188	0	13.8097620010376	5.67325448989868	283.549743652344	26.2289028167725	4.18768453598022
1.01365303993225	0.826516211032867	0	52.5097122192383	56.7535858154297	1.11764359474182	8.50847911834717	9.53983879089355	121.493721008301	8.08892154693604	4.34630489349365
15.1561079025269	0.931722819805145	1.63036739826202	119.389801025391	50.6440048217773	49.974235534668	3.56219244003296	4.21623611450195	123.591377258301	11.5805263519287	14.9513683319092
10.9035120010376	2.79300975799561	4.83585500717163	41.0409622192383	7.58131265640259	38.2272071838379	26.5694236755371	12.0145473480225	83.2880554199219	6.64896535873413	34.8813743591309
2.50291991233826	2.22677493095398	29.5417251586914	13.1272439956665	2.98850965499878	8.19982528686523	5.97776699066162	4.36829233169556	22.9205188751221	8.8906078338623	11.4436645507812
37.0411376953125	0	0.94644021987915	62.3256225585938	105.11043548584	3.64762353897095	19.8060855865479	2.56931352615356	342.878173828125	8.9056510925293	26.4481811523438
6.37137031555176	0	58.9066467285156	69.1544189453125	5.46641302108765	3.5977885723114	6.47823190689087	4.71098613739014	92.0414199829102	14.924446105957	29.9221954345703
7.33188247680664	0	2.40807056427002	33.4477958679199	17.0194454193115	10.0467462539673	4.11637926101685	2.54570078849792	50.9163932800293	12.3512716293335	13.101879119873
40.0905609130859	0.686226308345795	2.85974788665771	170.515182495117	83.5933227539062	11.1588258743286	347.213500976562	38.4636497497559	735.815063476562	80.1387100219727	46.5663185119629
9.41203117370605	1.3336136341095	3.55623769760132	30.5183734893799	2.70494031906128	1.31028199195862	5.9114408493042	7.3434853553772	49.4445266723633	2.88963174819946	6.51620960235596
1.34131217002869	6.38814640045166	0	33.6932640075684	41.3144569396973	0.835528135299683	3.10334539413452	2.44041419029236	88.1045913696289	8.68447113037109	0.963800191879272
8.03348922729492	7.48933124542236	2.96794438362122	45.5277099609375	3.38080072402954	6.1657190322876	42.257984161377	0	1024	18.5536460876465	6.92636632919312
3.21910238265991	2.4754946231842	2.64768433570862	50.2216415405273	115.425559997559	10.7851057052612	11.3622789382935	20.2532825469971	86.9797592163086	454.091613769531	2.73271656036377
20.2024211883545	0.149033382534981	0	12.3976335525513	13.5758113861084	5.68911457061768	12.1903438568115	5.9472713470459	39.2910842895508	12.1333780288696	47.6822204589844
8.00170803070068	0.77394837141037	2.80865025520325	29.7604293823242	10.8334436416626	13.6756591796875	1.72516369819641	8.93359279632568	63.9872856140137	7.8151969909668	23.7369365692139
3.92574834823608	0.0341160483658314	0	58.0465507507324	130.499877929688	3.57034134864807	20.5704212188721	3.58013367652893	125.717567443848	4.03361654281616	0.259493976831436
12.9461708068848	0.887618660926819	0	30.9050369262695	66.5367660522461	6.47758340835571	4.17877101898193	0	1024	19.7662487030029	12.9932289123535
32.0035591125488	3.34869599342346	4.45757818222046	73.3788986206055	35.543083190918	10.1033630371094	18.373462677002	0	1024	22.5695533752441	17.2243213653564
8.48330497741699	1.33652365207672	1.82481420040131	30.196361541748	8.95138454437256	3.44264674186707	2.12191319465637	1.25515937805176	52.2438049316406	13.0834226608276	10.4831628799438
9.89357662200928	0	0	37.0787773132324	63.440299987793	0.849117457866669	1.97011053562164	2.5803165435791	89.5807723999023	6.36599493026733	6.86691474914551
79.919677734375	3.13665652275085	6.46267080307007	180.243057250977	512.922912597656	8.04322528839111	52.3257865905762	19.0856266021729	788.858337402344	28.9838943481445	143.014297485352
13.5690784454346	0	1.00933694839478	64.2243957519531	177.162017822266	5.51963329315186	16.1676273345947	16.7169532775879	109.779441833496	10.7912340164185	5.29414081573486
15.8469867706299	1.72717177867889	1.38188910484314	50.4578132629395	10.5600872039795	6.39225101470947	12.7508115768433	15.3435430526733	119.257469177246	0.750113725662231	59.8123931884766
9.23873710632324	0	4.76838684082031	18.3917102813721	5.46998643875122	0.0347390994429588	2.74773621559143	6.40226793289185	47.8147239685059	10.3942890167236	27.7970199584961
11.267276763916	2.09429383277893	2.02176332473755	98.8358459472656	25.6857280731201	105.870948791504	34.0533790588379	45.2195320129395	215.642150878906	25.4140453338623	95.1262130737305
19.0336990356445	0.322181463241577	5.04482746124268	40.0218544006348	2.64122176170349	2.56617999076843	8.40683650970459	7.68990135192871	205.857757568359	11.2139511108398	7.59680557250977
5.82926893234253	0.839549899101257	4.02148771286011	41.5348434448242	8.36539077758789	6.38993549346924	6.15795612335205	2.96368193626404	52.6431579589844	7.01797819137573	20.8301773071289
16.6951122283936	2.19707655906677	0.178472340106964	34.5259017944336	6.67754459381104	1.79778671264648	0	0	51.4583358764648	17.9253578186035	30.603120803833
17.2662487030029	1.54941201210022	0.450224488973618	70.0165634155273	33.0569229125977	8.02519798278809	9.85838985443115	3.63580012321472	426.187835693359	22.5377254486084	4.8983941078186
3.83265066146851	0.12312788516283	0	34.3363304138184	179.127136230469	11.1051273345947	10.2770748138428	6.51673889160156	78.6510314941406	24.0745468139648	6.40388107299805
4.27068758010864	0	0.924793004989624	71.7827529907227	101.714538574219	2.92582225799561	10.8210906982422	1.88122928142548	147.852600097656	8.61934566497803	4.6432580947876
18.2471008300781	6.88646411895752	2.23661136627197	84.4459915161133	22.6306037902832	17.6195125579834	28.773645401001	19.1019458770752	140.1826171875	63.4665756225586	76.2409515380859
13.5476531982422	0	0.304957926273346	75.831298828125	381.760437011719	6.37684440612793	10.6070671081543	28.2752323150635	182.394653320312	15.2818260192871	3.02042841911316
10.2352714538574	3.96973991394043	53.1931304931641	118.293151855469	14.115029335022	9.79738140106201	15.7625608444214	31.220682144165	111.97240447998	17.2886447906494	85.7100677490234
0.747163712978363	1.05235171318054	0	18.6625270843506	55.1880569458008	3.02886509895325	6.13632154464722	3.73560214042664	56.3116035461426	2.78131175041199	1.65994882583618
2.36079168319702	2.76822638511658	4.8273024559021	23.3716259002686	12.5766401290894	3.54826831817627	18.9601154327393	12.5542984008789	88.5078430175781	8.29646301269531	42.3677864074707
13.8566961288452	1.30427873134613	14.9727993011475	103.002815246582	121.20539855957	42.0019912719727	27.8748760223389	15.292010307312	219.668746948242	47.491283416748	198.075805664062
2.85666847229004	0	0.108442462980747	42.7570457458496	150.064422607422	4.08091688156128	1.27049696445465	5.08702373504639	101.166198730469	15.9152755737305	0
9.1172513961792	1.82514786720276	2.99988079071045	66.4491729736328	15.3043565750122	244.108840942383	19.3155460357666	34.1269302368164	138.714492797852	59.278076171875	76.2922821044922
11.5547590255737	1.45595109462738	1.82155394554138	27.4381008148193	2.10399150848389	2.32579469680786	6.38632869720459	0	1024	0	13.2956047058105
10.9809827804565	1.8762332201004	6.13768100738525	55.8399772644043	2.80144810676575	14.3074445724487	3.69946098327637	1.02333831787109	62.1632843017578	2.82436585426331	15.2426261901855
7.03549575805664	0.515475571155548	2.70014691352844	30.3422088623047	49.0666847229004	0.813219368457794	3.42539143562317	7.36773633956909	49.0137557983398	3.47187662124634	3.31046581268311
0.982975482940674	1.47226917743683	0.74001532793045	51.0570182800293	1.80881762504578	3.84975051879883	0.15903702378273	0.207877993583679	47.0970726013184	1.70915305614471	40.3901443481445
2.10274648666382	1.12739968299866	2.65434718132019	72.5110626220703	51.0491333007812	8.71356105804443	54.4005737304688	24.2598419189453	178.286071777344	29.2917079925537	16.7668857574463
23.8092727661133	1.06218802928925	0.0755497366189957	53.0202980041504	107.150245666504	5.09468746185303	13.566011428833	10.1634225845337	354.207092285156	12.1520576477051	2.19989562034607
13.6401042938232	1.28018748760223	15.6470651626587	43.5357360839844	29.6641178131104	9.01420211791992	15.4532918930054	14.5056972503662	58.7560272216797	13.5266094207764	10.2035083770752
11.9953556060791	0	1.75203227996826	34.9924240112305	11.3779230117798	0	9.54064273834229	1.73590922355652	46.7732467651367	22.3923454284668	21.4473419189453
6.83882665634155	0	0	51.7738304138184	10.8685989379883	5.60142421722412	7.66194248199463	9.92426776885986	84.3412628173828	11.8883247375488	30.9335041046143
6.27538681030273	0	1.65948283672333	54.911018371582	11.2985820770264	16.2985725402832	6.05418634414673	24.867130279541	99.9327850341797	20.3044281005859	18.6004886627197
4.53356695175171	0	0.0501271672546864	42.6029624938965	5.05396175384521	8.7623405456543	20.8448524475098	5.71506357192993	73.8597869873047	6.11068487167358	8.41139030456543
6.68932390213013	3.12148094177246	3.06074094772339	52.919075012207	6.4417519569397	41.8473167419434	13.8352584838867	12.0652551651001	78.8173751831055	21.2390727996826	54.2707901000977
10.1506519317627	0.068304218351841	1.59812438488007	105.47119140625	0	112.325378417969	0.599491059780121	14.0273361206055	109.215087890625	33.5038146972656	42.0106391906738
2.96881628036499	0.360994398593903	0	34.1357192993164	76.6006469726562	0	2.36361503601074	6.68969488143921	55.9818878173828	5.96214628219604	0.182053819298744
10.3930053710938	0	1.26775431632996	46.9180603027344	173.64826965332	3.69128894805908	6.59436225891113	1.84016716480255	134.912567138672	2.40475058555603	2.03564524650574
13.9329509735107	2.16494536399841	1.07126557826996	117.382331848145	13.8909425735474	28.1713409423828	18.7703151702881	15.1451807022095	129.197235107422	31.2809543609619	39.1060600280762
29.8806858062744	2.47720289230347	0.880280911922455	165.478500366211	78.954460144043	57.5385589599609	25.7822532653809	13.5427913665771	283.158538818359	56.700870513916	185.085479736328
17.1667404174805	3.22972273826599	1.13367164134979	62.5525779724121	24.5838947296143	8.91099071502686	234.839736938477	15.7381191253662	269.566741943359	23.9053916931152	8.98825454711914
6.95350980758667	1.36618256568909	1.87868130207062	155.437377929688	12.9810190200806	13.2925252914429	12.6684112548828	31.3690738677979	198.675659179688	30.2919445037842	215.080490112305
3.59815645217896	0	1.53909111022949	34.1865196228027	5.7735447883606	0.759948313236237	10.7772016525269	8.89455318450928	34.1995315551758	12.5468664169312	31.1861629486084
8.96026706695557	0	0	17.2926235198975	10.4091291427612	7.3265323638916	7.43114614486694	4.88081359863281	34.2685127258301	1.14490139484406	20.8845748901367
9.23276138305664	0	0.11954353004694	40.2570610046387	5.27343559265137	19.8981971740723	2.77097415924072	18.1560192108154	96.295051574707	13.1818609237671	59.256721496582
9.73010540008545	0.409413844347	1.29049599170685	50.844856262207	14.0593795776367	27.9935302734375	24.5253772735596	10.2084188461304	90.6203536987305	7.69772911071777	73.3618469238281
5.61157321929932	4.21978235244751	0.504016518592834	94.8463973999023	13.4861345291138	28.9654445648193	3.2905740737915	4.90994024276733	84.9293823242188	5.57814645767212	23.5283985137939
9.3138313293457	0	2.99543285369873	47.2922172546387	5.68805599212646	10.2159214019775	13.9550113677979	13.6588459014893	70.6996841430664	26.5362644195557	30.4674510955811
4.87096214294434	0	0	58.8199310302734	142.432815551758	7.2080717086792	9.33227157592773	5.52130842208862	88.548698425293	5.58570194244385	2.85071086883545
7.2673487663269	0	2.63687682151794	15.1839218139648	1.77638638019562	2.03285074234009	1.19920003414154	10.8653268814087	34.2871856689453	7.31225919723511	2.89386701583862
3.65506768226624	1.51286923885345	1.35756278038025	55.653491973877	82.0964508056641	0.16357034444809	8.90038681030273	0.484533250331879	106.038581848145	6.46768808364868	3.93060255050659
22.9394645690918	3.045494556427	1.81849896907806	69.2035827636719	28.3899154663086	9.60709476470947	91.7780456542969	0	518.365905761719	10.9403295516968	8.05203437805176
5.28112936019897	0	4.70989561080933	32.3081130981445	3.69719457626343	37.9920387268066	34.5140342712402	17.3352489471436	67.9662094116211	14.3741102218628	53.8128967285156
7.87808084487915	1.40332520008087	0.395575910806656	30.536792755127	11.9914827346802	2.67284655570984	31.0613384246826	0	1024	37.0622596740723	13.0794982910156
0	1.27322351932526	0.343581229448318	46.5163688659668	3.16482186317444	15.6036071777344	17.3648815155029	8.72603988647461	89.590446472168	29.5255279541016	32.4027328491211
4.94393444061279	2.60392236709595	0	30.5654697418213	50.880989074707	2.69040107727051	5.46982049942017	0	311.383026123047	3.75402736663818	6.30420255661011
19.8001194000244	5.55140686035156	67.3000717163086	136.939498901367	59.980094909668	31.201322555542	32.5754318237305	32.9622535705566	213.634201049805	28.9364070892334	121.659965515137
9.82868194580078	0.948507487773895	1.56956052780151	15.8228931427002	15.7894897460938	4.26029968261719	6.06391000747681	1.24189102649689	333.671081542969	26.9710597991943	3.83075785636902
11.1814384460449	0.422493368387222	1.98609793186188	27.824670791626	8.60845947265625	0	8.50484085083008	2.8681366443634	39.4307174682617	0	42.8272094726562
7.09129476547241	0.755515217781067	0.463261663913727	35.9473190307617	60.2052803039551	0	7.2176570892334	1.61363816261292	60.396053314209	1.03289604187012	0.433050632476807
1.24367570877075	0.606187582015991	0	31.3467254638672	36.2431144714355	1.92639398574829	13.0217800140381	6.2458062171936	38.9150466918945	10.5792274475098	0.902430474758148
4.04839324951172	0.474357217550278	0	31.0069980621338	3.20612120628357	18.942741394043	0.766043245792389	3.433345079422	85.2886123657227	43.118465423584	22.9168300628662
31.1113967895508	5.41382312774658	0.269820988178253	87.2149963378906	69.7252502441406	6.43488359451294	12.4578409194946	51.3421211242676	122.421691894531	22.1886463165283	9.29621410369873
20.3936824798584	0	0.988239049911499	103.705871582031	58.9487380981445	3.99093842506409	15.4580488204956	184.243011474609	652.104614257812	19.3938446044922	6.19493770599365
11.6872568130493	16.1870155334473	0.555206298828125	52.3062477111816	5.17833185195923	10.9556646347046	6.67718362808228	7.01375293731689	73.189811706543	33.0402030944824	44.4629135131836
6.84429836273193	3.91919231414795	6.40079784393311	42.9035377502441	111.990585327148	1.48360204696655	2.2199113368988	27.353479385376	153.870498657227	11.5602312088013	1.81651294231415
5.87250471115112	1.03492903709412	0	13.0174980163574	36.9748458862305	0	7.92465209960938	0	17.0947437286377	5.09750127792358	0.253600478172302
2.4811418056488	0	0	51.2631378173828	34.9308090209961	0	4.09627866744995	16.1365699768066	120.419204711914	15.3734436035156	0.512836158275604
18.5103359222412	0.524641990661621	29.2587013244629	59.3331260681152	9.1674919128418	6.5114541053772	12.4453897476196	16.3914852142334	137.858734130859	27.3385772705078	65.5844497680664
2.12198090553284	2.33146810531616	1.91046047210693	15.6099233627319	10.329155921936	0	3.26925826072693	2.98053455352783	115.94652557373	14.3517627716064	0.455390840768814
7.76142072677612	2.91508316993713	1.23230469226837	24.1908493041992	0.917019665241241	0.759238481521606	8.32365703582764	6.18441009521484	22.4936408996582	6.04745054244995	3.67239093780518
17.5830192565918	2.20532631874084	73.7913284301758	54.970287322998	10.198314666748	4.76139211654663	11.6861810684204	12.4775352478027	88.4094467163086	35.7343559265137	39.1395988464355
20.7540435791016	0	1.65360629558563	35.0519943237305	2.76213645935059	4.6908392906189	22.3230171203613	4.38295698165894	219.804275512695	0	4.76158952713013
3.55672097206116	0	0	68.5954284667969	7.74751377105713	5.17446374893188	92.7882843017578	0	1024	14.8623790740967	10.3513784408569
23.064811706543	1.45337343215942	37.8006019592285	91.9504547119141	68.4240570068359	6.26850652694702	23.2887935638428	6.16688919067383	115.581031799316	21.9673385620117	80.2771682739258
3.93361449241638	0	0	17.0067901611328	121.508285522461	2.9502477645874	11.456298828125	0	35.7759437561035	9.55885696411133	48.6108360290527
20.6615676879883	1.14211785793304	22.4155654907227	56.7259330749512	19.5744762420654	3.28169369697571	9.23535251617432	5.88010597229004	69.1838073730469	18.3671073913574	52.1840019226074
8.12852096557617	0.38471645116806	0	25.3986167907715	3.27649784088135	16.1459884643555	5.05674886703491	11.5572195053101	81.2498779296875	5.5601487159729	13.6689853668213
0.901545107364655	0	2.0889687538147	15.6225681304932	6.32832860946655	0.91756933927536	3.84337449073792	4.41540241241455	17.1090831756592	1.04846155643463	9.12397384643555
0.274970650672913	3.02536559104919	0	10.549168586731	121.970817565918	0	0.640195786952972	0	58.8074417114258	2.241779088974	3.52367901802063
20.6182155609131	0.338392496109009	0.825545132160187	101.395645141602	139.895782470703	14.1501512527466	25.3925914764404	16.5777072906494	178.494674682617	11.7753849029541	5.93179655075073
9.43381404876709	0	3.49795246124268	77.0922775268555	12.9106349945068	11.5080623626709	18.4774951934814	7.03982639312744	111.51685333252	21.3677616119385	3.89613747596741
10.496509552002	0	0	19.0026435852051	135.091827392578	0	11.6784229278564	5.44395351409912	119.63353729248	1.47827446460724	0.337980300188065
11.8135757446289	1.08376443386078	0.738032400608063	10.299222946167	5.47340631484985	2.00921607017517	6.08358812332153	2.28224277496338	15.2457571029663	9.36695098876953	2.26882553100586
3.29658246040344	0	0	26.8032627105713	10.9425182342529	4.11322021484375	6.15818405151367	9.61880874633789	44.2743339538574	15.9797849655151	13.48659324646
15.7034921646118	0.7666916847229	0.384876370429993	64.5121917724609	12.0124034881592	9.88463592529297	10.614330291748	9.06490707397461	68.119758605957	30.7311000823975	47.9761924743652
13.5526809692383	4.8840479850769	1.57466244697571	100.867416381836	64.0115432739258	5.08095693588257	8.97060871124268	23.682502746582	821.528991699219	25.6026210784912	2.24281120300293
21.8685092926025	3.04323315620422	36.0839805603027	113.477210998535	77.9495620727539	22.8621807098389	20.8574466705322	13.9295749664307	122.715560913086	19.8343048095703	82.3455047607422
1.91099953651428	0	0	36.311710357666	145.557907104492	0.673523426055908	3.11886930465698	4.72286891937256	84.6733016967773	14.8204364776611	1.85870707035065
5.88506603240967	1.94399464130402	3.70962285995483	36.3891220092773	67.1907272338867	0.455389976501465	2.36490082740784	12.2127685546875	116.277526855469	11.4054737091064	10.250431060791
14.975040435791	1.53554129600525	230.912734985352	73.5176849365234	17.5552272796631	60.3827781677246	8.11718368530273	7.05936288833618	97.6559371948242	12.6044645309448	126.610298156738
11.840404510498	10.7511806488037	0	45.9593811035156	29.801025390625	26.9058246612549	7.74342679977417	12.0588045120239	88.5967483520508	15.6904811859131	24.6322479248047
12.7891979217529	1.20805895328522	0	29.676736831665	9.68435668945312	9.76196002960205	14.3454093933105	5.9850058555603	39.2841567993164	9.49015140533447	65.9662017822266
4.97782230377197	0	1.89221727848053	31.1282272338867	3.06195569038391	1.37820422649384	6.67552661895752	10.4385843276978	94.3164672851562	27.837760925293	97.5814437866211
2.19439554214478	0	2.07734489440918	43.2830772399902	42.3693885803223	1.11469793319702	6.94873809814453	4.29446744918823	86.0700225830078	16.1501350402832	5.24720096588135
4.23864459991455	0	0.653351724147797	33.190544128418	74.4118881225586	2.80140137672424	7.1593222618103	6.99216461181641	60.6521644592285	1.7533472776413	0.188837334513664
47.3498306274414	2.64511251449585	4.64524364471436	143.799240112305	148.467803955078	2.11003112792969	95.6913375854492	45.1062393188477	328.899810791016	73.6542587280273	39.1514434814453
17.696081161499	3.3082811832428	4.17703580856323	117.2353515625	114.12476348877	1.11986482143402	10.8693265914917	24.4033374786377	154.82991027832	18.4211864471436	5.91678333282471
19.4268321990967	0.00752284517511725	3.69894480705261	38.0085182189941	59.5641860961914	7.46731090545654	20.4505825042725	6.43024921417236	1024	7.79296875	5.42694807052612
7.95805978775024	0	1.75074398517609	51.3650169372559	18.2556800842285	1.68793487548828	13.6616582870483	0	1024	11.2719411849976	10.9954013824463
14.0735740661621	3.83769011497498	0.750551640987396	45.9364738464355	17.3250598907471	10.0945510864258	6.00388956069946	0.771131217479706	81.324104309082	22.502815246582	47.5406494140625
4.48535251617432	0	0	54.6390914916992	18.2697143554688	15.5935697555542	3.35090708732605	13.5559692382812	64.2424011230469	98.2620162963867	28.128927230835
8.41517925262451	2.50336599349976	1.7237811088562	68.7009124755859	104.748878479004	5.36459398269653	49.326000213623	8.05268669128418	187.910705566406	2.15671634674072	10.9407844543457
8.79891586303711	0	2.06781435012817	34.0711441040039	8.80158519744873	4.00817966461182	7.25730514526367	16.8803119659424	66.3254776000977	11.8579626083374	30.6612396240234
17.5248794555664	2.40109038352966	3.41754817962646	36.8738403320312	47.7492256164551	1.50348198413849	7.12879133224487	10.0811681747437	65.6141510009766	28.0751838684082	60.4214210510254
4.56415843963623	0	0	9.79733371734619	56.4244194030762	4.991295337677	7.88282489776611	1.36851370334625	42.6732940673828	2.6513934135437	1.27794456481934
1.59852516651154	0	2.50471091270447	71.4252395629883	15.9433765411377	10.1994123458862	7.90993738174438	5.63115358352661	126.475914001465	12.411904335022	4.40412044525146
4.04846858978271	2.19906091690063	0	58.0046501159668	3.3546838760376	15.2691888809204	6.05589962005615	19.4167995452881	130.855316162109	18.3346881866455	35.9653091430664
5.44673681259155	3.32513189315796	2.38023996353149	16.9001293182373	5.85123682022095	10.7634105682373	4.24907255172729	3.18107628822327	63.0560836791992	52.1740455627441	7.54838991165161
6.37908172607422	0.830327093601227	0.664060115814209	37.3852767944336	35.713005065918	0.390871584415436	10.4451856613159	20.5485858917236	196.506988525391	2.93522644042969	5.05730009078979
9.6056547164917	0.803983688354492	0	48.5804443359375	2.26486277580261	4.27983713150024	5.86400032043457	17.1956024169922	58.7308654785156	12.1059513092041	34.8216781616211
3.7568793296814	1.07000708580017	0	12.9844493865967	27.338752746582	1.03237247467041	3.68955588340759	3.48044896125793	72.2874984741211	5.39652109146118	1.7708466053009
5.60474491119385	0	0	38.4888076782227	6.04790735244751	22.0272884368896	4.01091480255127	8.60467910766602	39.3284454345703	25.3529758453369	19.1527099609375
11.6345157623291	0	1.10101842880249	57.7472152709961	94.96435546875	10.6410722732544	5.81675004959106	43.3273391723633	677.814514160156	17.1464138031006	5.11615228652954
11.0939807891846	1.44036042690277	0.646472811698914	85.7792892456055	8.56407260894775	4.49954700469971	4.87501525878906	11.1311826705933	210.857009887695	9.92598915100098	153.019332885742
5.18249750137329	1.00567078590393	9.57444381713867	64.4419479370117	50.5174560546875	18.1184864044189	44.4034080505371	18.2648525238037	176.047164916992	7.76708173751831	35.803638458252
12.4504528045654	5.50017929077148	2.8020498752594	35.7951927185059	97.0813140869141	9.5393238067627	14.7116355895996	0	59.0494422912598	7.54510402679443	6.22245502471924
6.54676961898804	6.13025760650635	0.969194293022156	99.0510559082031	35.1518898010254	65.9084091186523	4.44288349151611	19.2474727630615	120.822494506836	25.1685123443604	40.1461296081543
13.8291034698486	1.63963568210602	25.5032539367676	43.647045135498	11.8657760620117	4.26418685913086	2.74556756019592	4.91704511642456	64.8173675537109	11.4546899795532	13.7054824829102
13.2728652954102	0	0.964509308338165	121.853843688965	13.8054466247559	65.2091522216797	19.8717784881592	23.8905601501465	180.801956176758	26.1680717468262	67.5758972167969
1.68671596050262	0.585209727287292	0.316208958625793	46.3777465820312	1.63163948059082	7.29386377334595	13.1280508041382	6.00156736373901	28.1625080108643	8.93032550811768	28.5075626373291
14.0922565460205	0.285804450511932	1.7808780670166	26.6496677398682	6.55963897705078	2.8649435043335	5.06357622146606	5.4813380241394	43.8423805236816	1.00370717048645	90.9537887573242
1.77656221389771	2.67272448539734	0	32.370475769043	78.579719543457	2.30496191978455	0.231254041194916	1.9405472278595	29.4778461456299	3.96790814399719	1.93715965747833
14.763973236084	4.57390069961548	2.43570947647095	81.3509063720703	177.7421875	5.25672817230225	23.6233692169189	13.959451675415	142.986450195312	19.0996170043945	14.0509433746338
18.2231464385986	4.08480501174927	3.48578500747681	98.4784317016602	102.562637329102	11.7891273498535	11.5146198272705	13.9029245376587	124.251831054688	25.9878273010254	43.73291015625
6.05366039276123	0	0	17.2649517059326	51.3900375366211	0	0	3.01148867607117	37.8078689575195	3.68909883499146	0
24.4084568023682	3.8041398525238	0	108.75129699707	29.1370258331299	2.83649945259094	100.336616516113	58.1264038085938	446.125122070312	39.5543174743652	284.050262451172
0.380201160907745	4.19353771209717	0.530613780021667	76.5942001342773	12.9756937026978	14.8697500228882	3.15477561950684	7.74573183059692	107.549987792969	8.63400268554688	23.599006652832
18.3016948699951	0.189829751849174	0.431274086236954	20.8698978424072	5.29575634002686	3.89947080612183	2.02427887916565	11.1241388320923	126.27530670166	15.1205682754517	8.14999771118164
22.2544193267822	4.04253149032593	6.4680643081665	118.660095214844	204.892242431641	15.2390995025635	11.0202884674072	21.8843536376953	203.92822265625	50.6176414489746	100.1201171875
9.96922016143799	2.21206021308899	2.28197979927063	5.89426326751709	3.66672015190125	5.45929765701294	3.49463486671448	6.41574668884277	11.1004495620728	13.9172019958496	8.47088527679443
8.78059768676758	4.46076726913452	0	86.384895324707	7.7939715385437	11.4001350402832	5.70720291137695	7.76154470443726	127.438087463379	13.9158267974854	69.4463653564453
2.72874450683594	0.799304485321045	2.5732855796814	51.5277481079102	14.0999803543091	13.1912269592285	9.43828773498535	8.86144161224365	78.4586410522461	12.3138723373413	28.4284896850586
13.5492897033691	1.64023268222809	0.820416152477264	113.738540649414	17.841703414917	1.76424384117126	6.96246671676636	91.2852935791016	404.488128662109	5.37305021286011	12.4107036590576
8.40073013305664	2.54847502708435	0.265557318925858	91.3191604614258	5.98097658157349	67.0678939819336	18.8674545288086	34.7457046508789	128.064712524414	8.91290092468262	21.9501934051514
16.3655433654785	3.16809487342834	29.0615863800049	88.3996200561523	13.1787528991699	12.0731115341187	27.0333976745605	15.6394681930542	133.047637939453	27.4758148193359	163.030258178711
2.64208173751831	0	0.07796411216259	15.0345783233643	102.389312744141	0.333850771188736	4.85149002075195	0	60.6217308044434	18.5948047637939	4.09762763977051
6.63296031951904	1.25868701934814	0	28.8341827392578	9.82242202758789	1.87180733680725	14.6996221542358	3.08782434463501	62.287181854248	7.32220935821533	4.91155815124512
5.29587554931641	0	0.536099195480347	54.9384155273438	113.153297424316	2.95700550079346	7.74077749252319	4.74778270721436	142.762878417969	17.0413608551025	6.56831979751587
8.16229343414307	0	0	25.6992797851562	24.3122367858887	1.89913034439087	1.71920001506805	11.118727684021	138.84375	10.4376049041748	3.02930688858032
14.1848726272583	0.856755197048187	0	36.3786544799805	107.704864501953	10.4959726333618	6.51489400863647	5.70084285736084	46.7083435058594	2.14079093933105	4.0979471206665
4.28302717208862	0	0	39.2267036437988	96.7739944458008	1.08536112308502	21.262170791626	3.7841796875	94.3002395629883	11.6856260299683	3.61881995201111
3.79102659225464	0.782312393188477	0	34.7953491210938	67.0189437866211	0	2.08409094810486	6.11995506286621	71.1207885742188	6.92516326904297	2.12327599525452
4.68435621261597	0	0	27.255729675293	126.616882324219	6.58303642272949	3.1603729724884	4.20980262756348	59.0761032104492	2.25823044776917	2.02297949790955
12.2056398391724	0.240345314145088	0	16.2477035522461	0.496274948120117	0.182486444711685	5.19510841369629	3.10395932197571	14.1025800704956	4.83783674240112	3.28818345069885
4.95952463150024	0	0.102495692670345	15.3710298538208	120.404243469238	0.963197112083435	3.31614995002747	3.15217065811157	57.8205795288086	9.63301563262939	0.115756802260876
10.5503482818604	1.53255021572113	0.646635890007019	25.3889045715332	85.2511596679688	3.80478763580322	10.9066963195801	7.61138010025024	47.0741729736328	1.71861910820007	3.73082423210144
0.31226447224617	1.06750512123108	0	26.6784839630127	94.3744430541992	4.7472357749939	1.31742072105408	5.88267755508423	45.9729270935059	8.93535614013672	3.18584108352661
0.391173392534256	0	0	30.3463344573975	100.594879150391	1.83416664600372	11.8816270828247	4.68811225891113	42.6547813415527	12.6722955703735	0
14.0013723373413	0	3.07263469696045	47.3424873352051	90.1569213867188	3.9810745716095	5.49886178970337	7.57068824768066	94.6474533081055	10.0388088226318	2.74231266975403
13.0346279144287	3.85090851783752	2.25623869895935	88.0391464233398	191.954376220703	2.76332592964172	23.2054672241211	8.31729698181152	627.244262695312	36.205394744873	2.38932967185974
9.44253635406494	0	0	50.7231025695801	6.28342866897583	26.4019374847412	4.83781337738037	8.27810955047607	55.8083152770996	12.1642608642578	26.7870121002197
5.93556547164917	0	1.27973878383636	49.0957832336426	15.3962163925171	8.64348697662354	33.7103080749512	8.56124973297119	253.32389831543	13.5923776626587	9.60735130310059
7.27146577835083	0	0	87.9756851196289	16.7312107086182	144.49267578125	15.6208410263062	23.7329711914062	98.290771484375	16.5372543334961	72.1685104370117
6.75121736526489	0	0	13.7987337112427	14.7406435012817	3.27260255813599	1.86798560619354	10.3223991394043	364.965454101562	11.709038734436	0
16.7071666717529	5.13785409927368	2.14156460762024	37.229923248291	7.17360687255859	2.43804740905762	12.4000854492188	20.2637195587158	83.3983840942383	8.626784324646	30.7511444091797
14.0385007858276	1.21638453006744	0.399309545755386	27.641960144043	0.474412888288498	7.78673458099365	0.790284752845764	1.52153265476227	35.5473518371582	2.23149490356445	6.89748668670654
5.58161926269531	0	0	29.2319374084473	6.28453063964844	0	4.01654195785522	0.491052538156509	48.0694541931152	0.259470224380493	3.50332808494568
8.76762008666992	3.26425457000732	2.13261985778809	67.8004608154297	35.8772773742676	9.51688289642334	27.7925186157227	22.2264080047607	131.320220947266	11.6028671264648	39.7174987792969
