"X139La_H3K27me3"	"X140Ce_Beads"	"X141Pr_K5"	"X142Nd_PTEN"	"X143Nd_CD44"	"X144Nd_K8K18"	"X145Nd_CD31"	"X146Nd_FAP"	"X147Sm_cMYC"	"X148Nd_SMA"	"X149Sm_CD24"
3.8492865562439	0	15.0503158569336	19.3810997009277	8.49091911315918	3.3271484375	6.43039131164551	12.2577629089355	37.7701950073242	17.607177734375	2.56379294395447
17.0810356140137	0.56578254699707	2.31897616386414	84.1923065185547	12.78102684021	8.50414657592773	8.08879375457764	36.1948928833008	116.347610473633	17.1738204956055	6.22005891799927
12.9215774536133	0	0	35.2761001586914	66.2302551269531	0	13.0031614303589	6.38480377197266	87.0365905761719	12.8234233856201	12.2980604171753
59.0309677124023	2.48315095901489	3.01518154144287	484.042877197266	253.270751953125	1.45738506317139	59.2723617553711	103.821182250977	769.541687011719	47.2791213989258	44.9057197570801
19.5185451507568	1.6197657585144	11.9304580688477	165.752960205078	15.1633358001709	4.98008680343628	15.4674987792969	13.6218891143799	182.362747192383	25.2511234283447	11.7782850265503
13.5349407196045	0.296930313110352	1.07396876811981	56.8142776489258	31.6019191741943	0	3.89453887939453	25.3762760162354	149.039947509766	6.34318923950195	13.1136426925659
9.15002536773682	0	0	53.1329116821289	11.236421585083	0	19.4137363433838	5.37318468093872	69.7662506103516	5.59858274459839	5.90231895446777
2.88596487045288	0	0	36.0183067321777	29.7426300048828	0.547416031360626	13.3038663864136	6.31945610046387	63.0165824890137	4.04404973983765	3.58711171150208
11.8421697616577	0.124739304184914	0.879606127738953	52.2170372009277	8.12429618835449	0	5.16581773757935	5.18959140777588	101.254974365234	14.6670160293579	7.01525783538818
4.91737937927246	0	6.86384773254395	30.7774467468262	7.20666837692261	0	2.59667754173279	2.39348459243774	28.4281044006348	6.26758670806885	4.10501194000244
11.7215929031372	1.94348955154419	0	27.1574192047119	17.2202014923096	0	5.37683486938477	3.77934670448303	36.1332054138184	0.574641346931458	3.62078452110291
39.8861923217773	1.44432592391968	2.94310116767883	93.7449569702148	15.4239463806152	2.70165872573853	10.8497686386108	19.2257137298584	144.396530151367	20.8461303710938	12.7445678710938
3.6647047996521	0	1.13885426521301	29.2280044555664	2.97148561477661	0.259381502866745	14.7201070785522	12.0667095184326	43.4155502319336	2.10143852233887	0.516053318977356
7.16571187973022	0	190.35319519043	237.128540039062	3.90169930458069	8.58613586425781	7.1557092666626	4.60399866104126	246.938079833984	30.4397811889648	16.7015857696533
28.1433906555176	5.76366138458252	0	221.248062133789	135.086761474609	0	34.4665031433105	62.6973457336426	439.689361572266	42.6482048034668	23.7826690673828
25.3403663635254	1.59932279586792	0.93455708026886	61.3288841247559	20.0105895996094	0.824572265148163	14.1079511642456	13.4658708572388	56.2119750976562	16.6055107116699	6.26854848861694
25.6978244781494	1.38440370559692	0	71.03125	25.1820049285889	0.79143214225769	1.40190887451172	9.97422409057617	118.074363708496	14.4395265579224	4.80693483352661
16.0403747558594	0.369129598140717	3.32921266555786	76.6665191650391	37.5514640808105	10.8962736129761	12.5712060928345	4.95573759078979	109.195373535156	13.3249654769897	39.2122344970703
0	1.3585684299469	1.37527453899384	50.8152389526367	12.4799013137817	4.65406894683838	40.4223098754883	18.4895820617676	413.368499755859	25.7859783172607	19.6815814971924
9.60985946655273	0	0	48.0350952148438	34.3530540466309	3.27957105636597	9.71921730041504	12.6694097518921	103.248558044434	16.5509738922119	6.43773651123047
29.6110801696777	1.20901346206665	1.37307190895081	109.452018737793	18.6617527008057	0	12.4943161010742	13.0708837509155	117.968727111816	15.6085834503174	16.7301445007324
35.1114387512207	0.456904977560043	6.61805152893066	349.965728759766	301.354736328125	8.11599063873291	107.979782104492	1001.71014404297	1024	371.994567871094	67.4222946166992
5.64088106155396	4.02211856842041	0	59.1412239074707	3.55919599533081	0	3.73168611526489	16.1139106750488	37.436466217041	10.4239921569824	11.6627130508423
5.6529598236084	0	0.300896972417831	53.0871849060059	50.9855842590332	2.65400958061218	1.97638463973999	5.44118690490723	240.200973510742	10.3985385894775	3.6676766872406
14.7041654586792	0.186350837349892	0	47.0841331481934	13.9939126968384	0.415644019842148	4.69457340240479	9.62605571746826	60.4133415222168	2.81771373748779	6.92770051956177
4.44146633148193	0	0	22.2934875488281	4.88400411605835	5.73887300491333	7.93751096725464	10.446249961853	49.7902183532715	29.6239566802979	4.66703796386719
18.7414093017578	10.7705316543579	0	87.536003112793	49.6929016113281	10.9639930725098	5.6208872795105	27.8160858154297	116.954727172852	9.55593776702881	26.2737579345703
28.9254970550537	0.140028968453407	0.886412382125854	18.5514602661133	25.1008396148682	2.1140763759613	5.03360986709595	6.59029006958008	51.3442649841309	9.17515563964844	0
12.4157123565674	2.03748488426208	0	43.3157958984375	32.7055435180664	7.64113759994507	6.66492128372192	14.7683296203613	90.4863204956055	32.0210113525391	4.67416906356812
7.31487417221069	0	1.37606775760651	35.9430694580078	33.7690162658691	0.597439348697662	8.11135292053223	2.57961821556091	100.479400634766	12.6110601425171	1.34995782375336
13.7973985671997	1.81332421302795	10.8801174163818	130.790191650391	19.9744720458984	14.769567489624	15.8361148834229	61.6847801208496	142.908233642578	298.404418945312	3.45590496063232
15.2962923049927	0.56276524066925	5.73918151855469	80.7187423706055	13.3797950744629	5.46851110458374	7.20511102676392	19.5504951477051	149.627655029297	16.6682624816895	16.0630359649658
9.72744750976562	0.961633443832397	4.21190071105957	116.865440368652	5.63760042190552	7.73210096359253	66.4485931396484	34.4374389648438	441.081085205078	13.034764289856	22.5547332763672
24.8041019439697	0.0405647717416286	3.3649582862854	157.166702270508	43.7385749816895	20.9335269927979	14.3273038864136	32.1357955932617	216.804733276367	20.0601940155029	16.0495071411133
22.6347694396973	0	4.74993324279785	101.448135375977	14.9845218658447	5.60122632980347	0	15.3547086715698	105.44310760498	6.03142738342285	6.81051874160767
31.6719837188721	2.79079461097717	2.8891007900238	99.0065841674805	94.8124084472656	36.0563926696777	30.7214450836182	44.2392692565918	258.896636962891	27.8877792358398	12.0031957626343
25.5999393463135	0.847117960453033	48.6909370422363	142.583282470703	27.9600296020508	1.14671456813812	20.0993537902832	44.7944984436035	144.40559387207	26.5712089538574	35.9055213928223
8.22863578796387	3.70997262001038	7.45975160598755	346.680450439453	66.9707183837891	3.92141199111938	17.9207401275635	57.7079086303711	518.513488769531	61.0383682250977	20.3314094543457
0	0	0	22.3073997497559	25.7691917419434	0	6.03326988220215	2.07001805305481	21.7806015014648	0.600238502025604	0
60.5132179260254	2.83758044242859	0	53.5956344604492	35.6273002624512	4.04212522506714	6.49700117111206	28.0803775787354	98.2675552368164	9.00224304199219	11.5348873138428
16.3457164764404	0	0	24.1062183380127	19.2715148925781	0.0131578221917152	1.84598851203918	8.05897331237793	39.2297744750977	5.9048023223877	4.12936353683472
25.8000564575195	2.66521334648132	1.31965339183807	68.85595703125	80.1902770996094	0	4.42339324951172	10.5092735290527	78.0708389282227	8.27648639678955	21.5948314666748
6.936119556427	0.439303904771805	0	49.2573852539062	19.8179111480713	0.205437868833542	28.6668090820312	14.8230218887329	120.247421264648	5.4561653137207	43.4162635803223
11.2462062835693	0	0.63379693031311	12.7502374649048	2.55300974845886	2.39690947532654	2.64816045761108	0	7.53473901748657	3.08811330795288	8.84832382202148
14.4713182449341	0.439313799142838	0.738934099674225	61.7749786376953	18.500659942627	0	9.45461177825928	10.9767179489136	126.92586517334	34.2892036437988	5.80022811889648
10.4789772033691	0	0	29.2459545135498	17.6967658996582	2.3417866230011	17.1498470306396	10.0188016891479	71.8176040649414	2.355060338974	15.8024787902832
16.2546615600586	0.489959806203842	0.830021798610687	22.8929004669189	7.97918176651001	2.38713598251343	2.4970498085022	0.325358510017395	20.4610176086426	3.29900646209717	0.976145148277283
31.7788581848145	0	0	61.9565696716309	26.7145957946777	0	2.03347373008728	8.1368522644043	95.9702453613281	3.1675922870636	5.23827791213989
21.1486377716064	2.69956588745117	0.848529994487762	87.2796020507812	49.5519485473633	4.66289281845093	7.20506858825684	6.25101709365845	66.8025970458984	12.1760225296021	9.15754413604736
11.873423576355	2.18673396110535	0	23.4482746124268	19.3745136260986	0.414407134056091	6.33684396743774	13.6568574905396	45.8800048828125	5.60434770584106	1.97617852687836
38.221019744873	0.333504676818848	2.24970102310181	314.670043945312	185.318984985352	7.36767625808716	21.0322895050049	22.8397617340088	746.927185058594	50.7595367431641	29.199499130249
2.18627761228163e-07	0.304005414247513	0.537004113197327	30.7156314849854	3.29483842849731	3.57943224906921	8.08124732971191	3.0439350605011	48.1264533996582	4.65747451782227	2.78684568405151
5.16931533813477	2.9350118637085	0	52.8743629455566	31.6400032043457	0.589669048786163	8.16511249542236	1.53643202781677	91.6547775268555	12.6173934936523	5.39294815063477
12.7552318572998	2.83955597877502	0	65.5691146850586	57.9309196472168	3.72297763824463	16.2144775390625	12.9327993392944	259.396270751953	12.005841255188	3.50744032859802
103.086471557617	0	248.391418457031	120.528968811035	37.8711318969727	1.703284740448	8.45223712921143	62.999698638916	199.225051879883	13.3967161178589	17.0305023193359
41.1343727111816	0.514456868171692	2.57213068008423	120.755645751953	11.7892017364502	48.3200759887695	40.3496131896973	49.472282409668	284.632843017578	55.3440322875977	13.1724414825439
2.30517196655273	0	0	24.447546005249	3.12641096115112	3.17275333404541	9.05874538421631	10.4316577911377	53.4859657287598	9.48110198974609	5.6310510635376
96.4614791870117	3.52352952957153	0	48.9594841003418	39.0188980102539	5.24033355712891	19.0900039672852	2.35492920875549	300.799407958984	0.749466240406036	4.73816061019897
18.3585910797119	0	0.985433280467987	35.1265296936035	14.0567216873169	3.29241991043091	24.0869617462158	13.4682035446167	210.846481323242	2.86990690231323	25.1752815246582
9.57227993011475	0.589147627353668	12.4121780395508	78.1068725585938	8.11137104034424	6.04358434677124	3.02788424491882	19.3560104370117	94.3873977661133	5.78941583633423	6.00986576080322
41.0978393554688	6.81100845336914	7.46847248077393	164.354873657227	41.0851593017578	2.08439803123474	28.7411670684814	15.9060974121094	265.776733398438	97.0639724731445	13.0180530548096
24.5071392059326	0.732734262943268	1.88914179801941	195.060516357422	34.6048393249512	6.75489664077759	6.2172532081604	20.2136383056641	291.380096435547	27.8864326477051	15.7922563552856
21.0774078369141	2.35743999481201	2.53367829322815	201.332626342773	17.9034824371338	7.81009483337402	24.401819229126	43.4624481201172	374.807586669922	51.8165016174316	0
2.20459413528442	1.22713160514832	15.2885131835938	77.9219055175781	27.6772193908691	1.66620647907257	9.37521362304688	27.4958667755127	201.258743286133	37.6627922058105	9.44069290161133
21.5761680603027	1.290074467659	0.81179815530777	71.2580871582031	46.5888633728027	5.1085524559021	17.5635585784912	24.0511665344238	170.915222167969	13.8387928009033	14.3439064025879
11.6192684173584	2.98672580718994	0.77701598405838	39.6740798950195	42.9096946716309	1.76232612133026	13.0256252288818	4.00294351577759	39.6342315673828	10.8830738067627	4.3766565322876
2.0285439491272	0	0.446037113666534	19.9887256622314	25.8074016571045	0	2.48161268234253	4.1491527557373	45.8107109069824	3.67770171165466	7.38533067703247
14.4042682647705	0	0	20.8318653106689	0.860773503780365	2.7906551361084	8.28146839141846	11.5966196060181	61.9284896850586	7.54877042770386	7.490797996521
4.09994983673096	3.14980912208557	2.49101042747498	13.4134979248047	0.0929763242602348	0	8.22186279296875	0	11.5016555786133	5.1248517036438	2.65816783905029
5.39236640930176	0.600559771060944	1.39861404895782	100.659286499023	13.6088304519653	3.31836986541748	18.9804553985596	35.5551910400391	162.15852355957	12.0963039398193	12.5808992385864
9.7985202955897e-06	1.56934583187103	1.58504486083984	34.1053619384766	2.24906086921692	0	3.55166482925415	14.4764356613159	67.0505065917969	10.7454214096069	1.62749707698822
74.8297576904297	0.275286734104156	9.02181053161621	175.943069458008	54.0816688537598	5.36129760742188	12.7463388442993	62.6137962341309	227.392135620117	14.5761289596558	19.4356803894043
1.28395020961761	1.75750136375427	1.67112219333649	22.0817737579346	19.0345859527588	4.17841577529907	7.22592639923096	10.5745105743408	45.9123878479004	15.5930156707764	3.76654028892517
31.6156921386719	0	2.75322318077087	125.871704101562	4.18967580795288	0.212309330701828	4.53052091598511	8.63203811645508	204.1015625	29.4052448272705	25.8033294677734
27.313892364502	1.36996150016785	0	10.8219738006592	18.6299171447754	0.345389246940613	3.43090772628784	0.833188414573669	141.454391479492	0.436154276132584	4.18532276153564
11.4256429672241	2.01389622688293	0	37.3122711181641	46.8444442749023	2.00863242149353	0	12.4185905456543	52.5024566650391	7.55258560180664	0.0256930980831385
7.48181962966919	1.12592625617981	0	124.680564880371	17.5972270965576	2.2645697593689	29.0624542236328	22.2281723022461	242.801834106445	17.596830368042	6.52478837966919
28.8638648986816	0.195515796542168	3.12709164619446	158.191665649414	108.176155090332	2.79211330413818	11.5006113052368	21.3624095916748	380.976837158203	21.8578453063965	15.3134984970093
4.00486040115356	0	2.38183617591858	30.3645305633545	6.9843578338623	3.07579445838928	12.3608779907227	9.40844535827637	107.845909118652	3.27473926544189	1.69561624526978
4.65548896789551	0.667792916297913	0	56.9575805664062	18.5126037597656	1.18195843696594	3.57379698753357	4.68958568572998	89.2776107788086	9.87987232208252	2.82814788818359
22.6154499053955	1.08022153377533	0.890963077545166	54.1211853027344	10.0821475982666	33.3802833557129	19.6777076721191	10.8819036483765	113.284538269043	11.901478767395	32.5151557922363
12.6718816757202	1.32059168815613	2.2489333152771	87.9677810668945	9.61613368988037	4.44064617156982	15.0107946395874	8.80437755584717	187.743194580078	32.7958908081055	20.7499103546143
16.204252243042	0.539133548736572	1.30407071113586	145.94255065918	16.186336517334	5.593101978302	6.39646196365356	23.3515815734863	142.897750854492	13.8164052963257	6.63378047943115
83.0477905273438	1.69226169586182	1.16031301021576	396.464721679688	263.744201660156	2.84055495262146	83.5892105102539	69.1901397705078	665.669372558594	44.7107200622559	30.5189743041992
6.17308114669868e-06	0	85.9748153686523	33.6254920959473	2.48530220985413	1.5131778717041	2.53099226951599	4.37902355194092	33.2705917358398	9.86465644836426	6.58542585372925
38.1323623657227	0	9.4595193862915	226.79573059082	17.0242538452148	2.44198393821716	22.9986782073975	44.2130355834961	219.381042480469	27.907621383667	11.9981994628906
8.0200080871582	0.00583958625793457	0.0636257901787758	56.0237655639648	34.1798286437988	2.6189877986908	7.16852903366089	4.73404169082642	113.009544372559	15.5480060577393	8.6467170715332
6.69306612014771	2.69542026519775	0.851345479488373	10.2661476135254	3.45438051223755	2.45885968208313	3.36561322212219	5.15499353408813	22.9299449920654	6.91218090057373	5.74823045730591
14.8544340133667	1.1274049282074	2.67184591293335	105.87606048584	7.8460111618042	24.1532402038574	18.6892700195312	26.684398651123	199.328140258789	15.8749923706055	9.06962299346924
0.10031683743	0.0353660099208355	23.6970729827881	15.1033115386963	8.78514099121094	0	0	7.88616609573364	13.9758358001709	3.2415771484375	1.93897128105164
0	0	0	22.5707530975342	10.7261552810669	2.010422706604	6.19428396224976	10.0767488479614	46.8477630615234	13.1410179138184	0.662533521652222
49.8723831176758	1.08409655094147	2.23448729515076	154.177062988281	10.0020694732666	2.33029317855835	16.7579574584961	29.447057723999	237.873764038086	48.6514625549316	52.1232299804688
38.269214630127	13.5239877700806	15.5636777877808	233.003555297852	94.9347839355469	31.8281555175781	57.2562675476074	62.4240951538086	622.670593261719	47.7820167541504	101.713478088379
24.2478675842285	4.90946960449219	14.5768795013428	227.71533203125	42.0864562988281	10.3012428283691	13.9976406097412	27.9788684844971	427.929931640625	37.1597709655762	34.2640075683594
27.2829284667969	4.22869825363159	12.6002416610718	173.274322509766	45.170238494873	1.61702120304108	14.955961227417	22.9427185058594	163.722961425781	11.1925458908081	13.8133420944214
1.12657153606415	2.55285573005676	0	11.263165473938	3.14838886260986	0	1.87992990016937	4.3440055847168	31.0762786865234	10.4824123382568	1.92556667327881
0.679611206054688	0	0	10.4177589416504	0.0718943327665329	0.627599895000458	4.18368244171143	5.08609437942505	19.0613555908203	10.641562461853	0.302917897701263
1.04982388019562	0	0	11.1705255508423	9.79721355438232	1.07572031021118	1.06764948368073	2.13905024528503	24.3404712677002	13.8179483413696	1.61392617225647
31.7247943878174	3.33245468139648	98.473258972168	252.758499145508	6.62722873687744	8.35731315612793	17.743745803833	34.8933906555176	433.385528564453	36.2607612609863	38.4302215576172
16.8857975006104	0.66790097951889	0	87.8411254882812	35.0252304077148	1.32973074913025	19.3957710266113	10.7883195877075	218.311340332031	19.0249099731445	16.8831882476807
20.3361167907715	0	0	57.5253486633301	3.83896017074585	1.82826662063599	12.689510345459	26.8470363616943	95.6281967163086	14.543815612793	8.43590450286865
10.9020299911499	1.41716623306274	0.64611804485321	75.1573944091797	0.0244539305567741	0	14.1608400344849	21.6308841705322	100.045310974121	9.03636741638184	7.08562517166138
47.6228981018066	1.47960877418518	2.72008204460144	120.023506164551	12.3059282302856	8.81255054473877	14.9223375320435	73.4191970825195	256.374664306641	43.245677947998	10.8812627792358
15.9396381378174	0.262785106897354	0	57.8520088195801	8.25865840911865	0	7.99390363693237	11.466136932373	38.2411422729492	7.64240884780884	6.49734830856323
20.4068794250488	0	150.094436645508	174.552917480469	3.18920850753784	1.73684513568878	24.5324153900146	23.1648960113525	268.649597167969	31.22389793396	3.37685513496399
32.2020645141602	0.158944502472878	0	148.12971496582	43.2003135681152	0	17.0413265228271	0	772.492858886719	9.93525314331055	9.59500885009766
0	0	2.12704706192017	24.5057773590088	8.92743968963623	0	14.5156354904175	4.36412954330444	77.984375	6.46258115768433	5.83841991424561
66.4297714233398	1.43538689613342	405.791778564453	324.403930664062	127.076049804688	0	38.6498947143555	47.1878280639648	414.690887451172	38.8619537353516	20.8956680297852
5.04261350631714	3.16670250892639	0	58.5086288452148	75.025032043457	3.50292253494263	6.92138147354126	15.2328824996948	202.663055419922	7.69620847702026	5.40970754623413
7.01708126068115	3.23821711540222	0	25.1200542449951	20.8296737670898	3.4052746295929	3.02078700065613	7.72244262695312	59.6445579528809	3.62562584877014	0.872255086898804
10.6183624267578	0.806582689285278	0	105.44066619873	114.665679931641	0	18.7783794403076	6.84813070297241	164.184799194336	10.1434412002563	20.3477401733398
2.39248466491699	0	2.69927477836609	9.88147735595703	3.63300752639771	0	1.60207557678223	2.84469127655029	48.3297157287598	4.297523021698	1.98539233207703
14.2590169906616	0.639230668544769	1.60221314430237	127.137680053711	8.63959407806396	1.71215915679932	58.5464706420898	51.8985137939453	399.843475341797	19.7736072540283	13.7175827026367
28.6305503845215	1.87836158275604	0	44.683650970459	13.7486162185669	0	4.99223804473877	3.6105055809021	61.1918754577637	7.61908578872681	6.19005298614502
21.6354217529297	2.70819449424744	0	71.3551254272461	24.0880870819092	5.34853887557983	6.09184217453003	18.2542037963867	150.160598754883	9.73920154571533	6.52143049240112
12.1790647506714	1.34805583953857	0	39.6852264404297	43.2715530395508	1.55964016914368	4.68062543869019	1.75269043445587	25.0272617340088	1.49898076057434	9.42175006866455
24.4692687988281	0.0439868420362473	1.20852088928223	100.686889648438	12.7604866027832	29.7015933990479	3.57902503013611	36.2394065856934	136.251541137695	17.1352462768555	13.9240283966064
13.9083871841431	0.339163780212402	0	59.6073532104492	5.87446689605713	3.47699403762817	16.36647605896	11.159330368042	70.3525848388672	5.7621955871582	2.21932768821716
12.4131622314453	0	3.46493554115295	132.444183349609	16.9179821014404	4.06489181518555	70.6723785400391	46.2171173095703	489.091186523438	24.6022090911865	15.6642980575562
21.3126106262207	2.22974729537964	0	28.8870277404785	18.723705291748	0	1.73714375495911	4.35808658599854	45.1009140014648	9.41978073120117	0
14.8186464309692	1.82264924049377	0.919586479663849	39.8067779541016	17.2630710601807	7.9401330947876	9.37788009643555	3.21635556221008	39.8382911682129	6.65643644332886	16.6713695526123
19.270170211792	0	1.19123232364655	72.2147445678711	28.8517608642578	3.8100004196167	9.53948497772217	8.5631103515625	119.558792114258	11.9678344726562	4.72080707550049
22.417610168457	0.503358840942383	1.47568559646606	46.5623054504395	15.1218948364258	1.42753398418427	8.97097396850586	8.34453582763672	45.6994934082031	12.1449022293091	10.8662900924683
1.72705233097076	0	0	15.0729179382324	7.71735382080078	0.332665383815765	3.93320202827454	2.18231391906738	79.7168197631836	1.7558159828186	2.32905006408691
102.081520080566	3.04109525680542	1.06944131851196	15.2584409713745	8.19724464416504	3.72916603088379	13.2624015808105	3.26735854148865	48.7486381530762	9.86201000213623	7.04022884368896
20.3920936584473	0.501375675201416	68.7718963623047	159.33088684082	8.49570465087891	0	16.683084487915	23.1437816619873	183.490356445312	10.7185869216919	8.34396362304688
6.36028575897217	0	1.07288897037506	40.9319725036621	6.56850337982178	0.915478706359863	18.9609794616699	15.6348638534546	100.950820922852	2.04722118377686	3.4456787109375
12.9863834381104	0	0	42.827808380127	77.713005065918	7.22678422927856	3.01907873153687	15.5031766891479	94.5301284790039	13.5202484130859	0.262947350740433
31.0052223205566	0.0960460603237152	2.12322473526001	68.0062026977539	7.27160501480103	0.382045537233353	7.58056735992432	16.9508819580078	109.514953613281	66.1729125976562	5.96333122253418
5.04242372512817	0	9.64558029174805	36.3648567199707	3.40625905990601	2.22995591163635	6.83002424240112	5.81315898895264	59.6464729309082	11.7932357788086	3.48700523376465
14.1657438278198	0	0	22.3019676208496	5.44684410095215	0	7.58850240707397	6.50300312042236	54.0690574645996	1.711505651474	8.25800323486328
25.5022029876709	2.75946235656738	0.533310294151306	235.774124145508	95.7768783569336	4.31151294708252	12.4758424758911	8.62497329711914	512.166809082031	23.0860481262207	26.0669937133789
1.9026130437851	0.624020397663116	257.890197753906	188.451675415039	6.31889772415161	0	11.4289112091064	15.3362731933594	190.992645263672	14.9045190811157	26.5970249176025
81.0639190673828	2.1805739402771	13.5430517196655	261.809631347656	58.7280349731445	16.8386077880859	16.6629772186279	52.189525604248	324.257568359375	32.5151062011719	11.7697525024414
18.9810943603516	1.37177085876465	0.221183300018311	81.5583724975586	68.3531265258789	1.66042029857635	13.2028245925903	8.86123371124268	141.063232421875	16.2389125823975	5.18262481689453
32.5295257568359	0.704586386680603	0.803202092647552	57.733570098877	34.4407196044922	1.95973134040833	6.283034324646	19.9015216827393	111.96875	8.17309188842773	4.70331048965454
24.0421142578125	6.5567684173584	2.75553464889526	21.7197685241699	30.9503307342529	0	8.10062313079834	8.32134056091309	40.5141143798828	6.52766466140747	8.36274814605713
14.8535308837891	0.647394359111786	0	41.9781761169434	0.382111310958862	0	8.03040981292725	1.90988743305206	93.1934356689453	9.33236980438232	4.86319065093994
0.728313267230988	0	0.518187701702118	62.2366714477539	1.69373726844788	1.29416108131409	41.8272895812988	11.9568529129028	223.024398803711	1.31012177467346	7.12389039993286
31.507495880127	1.19362056255341	0	52.4278831481934	47.9087905883789	3.33802962303162	5.70596933364868	9.48209667205811	75.1134567260742	13.3898181915283	3.70000982284546
49.0488662719727	0	0	14.1342544555664	10.2931184768677	5.12207698822021	6.16277313232422	0.425650745630264	32.8188552856445	1.66327345371246	2.90445423126221
11.8025808334351	0	0	45.5583229064941	52.2067337036133	0.551012456417084	3.72709250450134	5.73699188232422	44.3869781494141	0.500542879104614	7.26429033279419
15.3800525665283	0	0	22.3305225372314	6.54578113555908	1.71189260482788	2.99030828475952	6.67621946334839	70.2462997436523	4.33142995834351	0
68.3735504150391	3.12494134902954	2.01470160484314	242.165908813477	39.9050483703613	7.88341665267944	50.954174041748	98.2374725341797	414.886322021484	69.9196090698242	49.4787864685059
40.6028633117676	2.08985757827759	8.53666305541992	267.504455566406	14.0483293533325	102.267776489258	22.936616897583	98.0861663818359	341.998718261719	46.9825630187988	26.8623847961426
0.120952367782593	0.460271030664444	0.605663895606995	4.48775482177734	7.63296461105347	0.50804990530014	3.52517986297607	6.96239376068115	39.1105499267578	11.1150455474854	2.20154643058777
43.1438865661621	0	1.41550827026367	24.3492488861084	20.8966255187988	7.42777347564697	4.60370063781738	0	143.315872192383	3.85294032096863	3.3234760761261
0.381868898868561	0	0	19.2692451477051	5.88730478286743	0.516707539558411	1.88746345043182	0.0941742137074471	48.5339012145996	3.47792196273804	2.76392388343811
32.7842903137207	0.581709682941437	0.510554015636444	26.7077445983887	6.63178205490112	1.82112181186676	1.98943912982941	3.11310696601868	68.6278686523438	6.12380790710449	2.73097324371338
42.742244720459	5.77209281921387	0.721232771873474	239.442993164062	166.728134155273	5.12983894348145	10.2277708053589	9.16970920562744	703.618896484375	33.8498611450195	8.48061275482178
46.2705841064453	1.69691693782806	0	199.559661865234	384.223510742188	4.62081813812256	51.8446960449219	21.277624130249	791.938171386719	20.0868740081787	30.7810554504395
36.197078704834	0.132037132978439	5.5355658531189	174.690017700195	33.0375785827637	1.70265674591064	38.3092765808105	43.2429237365723	459.6455078125	36.5328826904297	21.9277992248535
1.50241506099701	0.883437633514404	0	18.0280876159668	3.4519157409668	0	0.189561754465103	4.31356191635132	43.7793807983398	2.42942309379578	0.0429167225956917
24.4823532104492	1.12992918491364	0	159.052276611328	43.4508895874023	7.72734594345093	18.5216407775879	12.1625061035156	277.03759765625	15.5732221603394	10.6227760314941
22.79905128479	2.85646557807922	0	110.16170501709	28.4931735992432	6.13125610351562	11.4965991973877	11.211329460144	84.7018814086914	15.4551572799683	7.64486265182495
9.41152000427246	0	0	92.7114715576172	14.799298286438	0.0362615808844566	18.9084072113037	12.1278896331787	186.418853759766	19.5149250030518	3.194979429245
18.5386981964111	2.74829006195068	0	40.0166282653809	42.7133369445801	1.7580498456955	7.18610620498657	17.5462989807129	65.3279342651367	13.6967725753784	16.980583190918
91.9516372680664	5.07421255111694	0	25.7902774810791	14.9859066009521	0	1.67678189277649	7.95360231399536	34.3866081237793	1.53003346920013	5.28826284408569
23.9789047241211	0	3.36936402320862	202.935836791992	22.7960510253906	19.7081031799316	18.3932952880859	29.8262901306152	259.679138183594	18.9343852996826	29.8276386260986
26.0315761566162	0.736397743225098	285.58203125	111.288726806641	40.0813865661621	2.0235743522644	25.0757503509521	30.5296535491943	246.206314086914	39.211483001709	15.7759428024292
64.0918350219727	3.47484564781189	1.27544260025024	220.990921020508	85.6896209716797	16.689266204834	31.5509490966797	0.0492982938885689	969.117431640625	8.38987827301025	40.8704528808594
21.3382740020752	1.23087596893311	0.877683997154236	57.0486755371094	17.0692958831787	0	0.0217712633311749	8.03164958953857	104.622123718262	18.1894989013672	6.39521217346191
9.2281494140625	1.59404146671295	0	27.4714756011963	0	0.200475484132767	0.335825860500336	1.56456851959229	38.0824317932129	4.57750511169434	0.959702253341675
2.91529870033264	0.960858523845673	2.10617232322693	37.9973754882812	1.28171503543854	0	25.7446174621582	13.4045925140381	215.985290527344	6.47869491577148	3.93737196922302
0.0303104314953089	0.947374999523163	0.842368125915527	36.6869125366211	7.71862936019897	0	16.0012626647949	8.62544059753418	159.35368347168	4.93414640426636	8.47696113586426
5.59549474716187	4.15890264511108	0.807402074337006	71.6396636962891	78.9776763916016	0	4.05522203445435	6.308509349823	72.7360916137695	7.99619579315186	0
11.3666572570801	0.265362560749054	4.25775146484375	163.915161132812	54.2026863098145	1.5201507806778	41.5123023986816	36.1728210449219	374.255432128906	26.4332275390625	16.6533164978027
57.2746086120605	0	0.20476071536541	414.355163574219	297.450805664062	3.29058504104614	58.8313941955566	44.080509185791	629.962829589844	35.2738800048828	9.8804407119751
22.5160961151123	2.30191469192505	0.107917420566082	80.325798034668	48.2297897338867	9.10150909423828	9.0591344833374	14.5984678268433	119.881469726562	13.2956857681274	12.720799446106
28.2860832214355	0	9.07930374145508	129.327499389648	37.3396263122559	0	34.5424118041992	22.8561668395996	176.637023925781	24.9051856994629	8.68398380279541
24.6344890594482	4.31727933883667	0	41.143741607666	34.2415809631348	2.69249033927917	2.24425387382507	2.33812403678894	55.7781028747559	8.98855400085449	12.5609912872314
14.0281972885132	0	2.11348557472229	12.5543193817139	3.96831631660461	0.28820863366127	4.09424114227295	2.79463601112366	25.2835521697998	7.78217124938965	0.647976994514465
108.503639221191	0.492808967828751	1.31656301021576	121.01554107666	6.04048252105713	0	6.46862983703613	38.0656433105469	136.736465454102	26.950834274292	6.53963279724121
1.59037303924561	3.12121868133545	0	22.2907981872559	40.1987419128418	0	5.21461200714111	4.57105302810669	53.9377365112305	3.79635763168335	0
13.3351068496704	1.5919953584671	0.441449552774429	39.4677543640137	19.6103916168213	0	5.14206886291504	0	64.9713439941406	15.7964057922363	5.64323329925537
4.22218751907349	0	8.19840145111084	42.1550941467285	20.2852249145508	3.31433725357056	4.43366575241089	4.98194694519043	62.2927474975586	28.505277633667	5.86636734008789
44.2867240905762	0.182385519146919	0.265419602394104	138.791442871094	21.4304218292236	1.45324492454529	4.4567494392395	25.85768699646	152.674270629883	20.8520679473877	8.58952045440674
46.8863487243652	0.171537980437279	1.70914363861084	136.402084350586	99.4497299194336	3.36064720153809	13.5619792938232	25.9709854125977	170.38508605957	14.1350507736206	10.9518976211548
2.5219349861145	0	0	22.3626842498779	15.3163261413574	0.668511927127838	1.46998572349548	8.83494091033936	48.2447700500488	4.54578638076782	3.63579773902893
38.579963684082	1.05598783493042	2.56652212142944	110.779487609863	19.5882358551025	0	23.681432723999	20.6140766143799	477.124389648438	8.9562520980835	18.9238719940186
4.05526638031006	0	5.95301818847656	46.8182182312012	4.91334676742554	6.10183715820312	10.9217014312744	7.24613761901855	38.5746574401855	7.38500070571899	5.47781419754028
4.2819447517395	1.45685386657715	31.6115798950195	26.2540283203125	12.6020908355713	0.395462274551392	3.09036302566528	8.55876636505127	60.9353408813477	12.979022026062	8.65846157073975
14.2194309234619	0.304352432489395	33.4650230407715	73.6851272583008	3.55759930610657	3.54177355766296	17.3302745819092	3.700199842453	137.581192016602	10.8328285217285	2.07291579246521
55.5070877075195	2.54399967193604	1.29273176193237	33.4598770141602	23.8401966094971	14.4460649490356	6.78412532806396	9.4356517791748	75.0096206665039	16.9393558502197	2.82488799095154
44.717716217041	0.754127144813538	185.506546020508	274.090606689453	4.95643424987793	2.92007780075073	6.92253971099854	33.8646469116211	347.390472412109	26.2440414428711	15.042652130127
75.5017623901367	0	174.805603027344	224.398880004883	45.572322845459	7.02604961395264	23.0659198760986	42.145378112793	342.814697265625	50.7706413269043	41.0307960510254
29.5070419311523	1.83655631542206	219.573669433594	179.436126708984	23.0052299499512	7.88853025436401	9.45498561859131	12.5777702331543	190.922058105469	29.1157035827637	64.7471389770508
36.3944664001465	2.24677300453186	350.860595703125	334.293304443359	7.35865211486816	1.71510517597198	26.5693798065186	41.4282112121582	298.028869628906	22.4771270751953	25.8479862213135
17.3328113555908	4.20022439956665	0	32.5276107788086	7.26901292800903	0	5.69776391983032	12.1990747451782	32.0940628051758	4.43737459182739	0
5.37191724777222	0	0.659718155860901	84.2364349365234	16.4505825042725	0.0713127478957176	9.62571620941162	5.09061431884766	123.598564147949	5.21258449554443	5.58661270141602
62.4536247253418	2.4710578918457	272.691467285156	224.819259643555	16.0588302612305	12.1948852539062	14.4435386657715	55.4647674560547	263.666320800781	51.8497009277344	13.1951189041138
3.1030855178833	0	0	4.09333276748657	2.02508544921875	0	2.36594128608704	2.87579154968262	16.8184204101562	0	0.178068742156029
67.3516540527344	0.83213073015213	1.24761569499969	200.811187744141	85.6221923828125	225.956954956055	24.3280696868896	63.9864654541016	427.728729248047	5.37962007522583	23.465763092041
20.7851238250732	1.05433464050293	2.12438726425171	63.0967216491699	16.9534358978271	24.9011116027832	6.57781553268433	50.4059562683105	216.093994140625	9.57766723632812	14.9376592636108
18.7169990539551	0.668089807033539	76.3878021240234	95.0874633789062	4.65691518783569	0	6.92529153823853	3.82620096206665	99.9963150024414	21.1910972595215	34.2865180969238
3.76914858818054	0.985266804695129	0.703006029129028	96.0534286499023	6.52071714401245	4.7516622543335	27.2728462219238	42.8443412780762	261.834289550781	38.1342964172363	21.7282943725586
6.52800703048706	2.49874234199524	0.759700953960419	52.067512512207	34.6585235595703	1.34121680259705	3.31264781951904	8.66165256500244	184.4228515625	11.2359113693237	0
0.925203084945679	0	0	21.5900402069092	8.0479097366333	0.76833188533783	4.42005777359009	5.49648952484131	22.4239177703857	2.10620903968811	4.65119123458862
10.9288444519043	2.23384952545166	0	43.1070365905762	23.8269634246826	1.25146842002869	1.33172059059143	2.29842567443848	47.5680923461914	10.0097637176514	1.61128067970276
89.7445068359375	1.92841899394989	285.12890625	313.572143554688	31.3736820220947	20.1270217895508	23.6694564819336	93.3943710327148	438.036743164062	18.8072910308838	49.5099754333496
