"X139La_H3K27me3"	"X140Ce_Beads"	"X141Pr_K5"	"X142Nd_PTEN"	"X143Nd_CD44"	"X144Nd_K8K18"	"X145Nd_CD31"	"X146Nd_FAP"	"X147Sm_cMYC"	"X148Nd_SMA"	"X149Sm_CD24"
10.5476865768433	0.342901289463043	0	16.1910495758057	0.310557156801224	0	1.65834403038025	2.88549613952637	32.3659553527832	5.32430791854858	0.538971424102783
2.68717908859253	0	0	27.2668838500977	3.52525353431702	2.45092868804932	0.623570919036865	0	155.823944091797	4.97403717041016	0
5.94518184661865	0.513999938964844	0	15.9218740463257	5.08878135681152	0.329950720071793	1.56689548492432	1.35402429103851	18.2407989501953	1.22313630580902	3.81269145011902
9.58956432342529	0	6.01333045959473	13.5054817199707	20.4389381408691	2.02563738822937	4.49240016937256	1.11870741844177	37.61572265625	8.61114501953125	4.79663896560669
20.9501533508301	0	0	79.1439514160156	23.1502552032471	1.02662682533264	3.32350420951843	0	194.376373291016	15.2111749649048	5.67604351043701
18.023998260498	2.0950071811676	2.01072859764099	56.6893463134766	62.7394638061523	2.9108407497406	12.0840950012207	0	136.254135131836	12.8533706665039	0.868062555789948
1.80160737037659	1.92847526073456	0	16.5860652923584	13.080451965332	0	1.87523233890533	4.58311223983765	36.7602958679199	0	3.78041696548462
6.71165025778464e-07	0	0	12.5725936889648	2.13684630393982	0.0803808644413948	0	6.04685974121094	14.3247222900391	61.6899070739746	0.287009477615356
15.2670087814331	0	0	40.4961204528809	14.9439563751221	1.61548447608948	3.9018702507019	3.53204846382141	23.4062309265137	0	2.2797417640686
6.51503896713257	0.977366745471954	0	27.3495960235596	1.73382759094238	2.76614761352539	4.51486396789551	6.85488510131836	37.8952026367188	5.35306882858276	0.690241754055023
27.498477935791	0	0.508133351802826	9.5253734588623	10.1407890319824	0	9.29088497161865	5.33042907714844	3.68194198608398	4.7844705581665	4.92871189117432
10.1828966140747	0	0	37.4988822937012	2.77322340011597	0.639121294021606	8.39260673522949	0	110.649299621582	2.7587456703186	2.98658561706543
7.01980304718018	0	0	37.0995216369629	20.1219272613525	0.550672709941864	6.45491027832031	0	115.249397277832	4.78102159500122	3.90088701248169
8.27783679962158	0.787237882614136	0.0661417171359062	24.5183429718018	2.68237614631653	0	0	8.82664012908936	43.2591361999512	8.42436218261719	0.620900928974152
1.51569008827209	0	0.740544259548187	42.8699607849121	0	0	4.31355142593384	9.40482616424561	93.859992980957	0	6.08688974380493
4.69899129867554	0.680150032043457	0	17.7113056182861	7.74613666534424	0	77.874870300293	1.01884615421295	55.4964256286621	1.31206691265106	2.51277565956116
6.06029748916626	0	0.370737046003342	62.8444519042969	8.25479221343994	0.425953567028046	12.2929172515869	1.74141752719879	149.033508300781	3.87586522102356	2.56226277351379
17.2984790802002	0	0.249856933951378	32.475227355957	15.7485656738281	1.345858335495	2.78480362892151	0.814025819301605	20.238697052002	10.6376037597656	0.441815078258514
10.0218563079834	0.896655738353729	0.0582279078662395	37.6438446044922	73.2349319458008	2.99877071380615	2.12340068817139	4.65224266052246	118.184638977051	0	2.20265293121338
5.51301097869873	1.82553112506866	0	7.84037923812866	11.6705083847046	0	0.891964375972748	0	11.734260559082	1.39360547065735	1.2860244512558
6.08573436737061	0.3597571849823	2.17699980735779	123.170333862305	50.2178001403809	0	7.68507385253906	1.57064986228943	102.564819335938	6.26162624359131	0
9.94759654998779	0	1.71299004554749	29.1612758636475	37.8168563842773	7.59883975982666	10.2113971710205	6.05617427825928	94.0595397949219	7.76039886474609	1.53374183177948
123.907127380371	4.9156928062439	1.39874839782715	25.5630569458008	16.156307220459	0.735192716121674	22.3636627197266	19.677677154541	86.8803405761719	31.966588973999	177.44889831543
10.2327785491943	2.3816933631897	0.349442213773727	26.3391265869141	8.44091606140137	0	1.24240946769714	2.46060991287231	64.494514465332	6.956130027771	2.6214747428894
0.592338800430298	0	0	2.24095559120178	0	0	1.45916974544525	0	2.4754364490509	0	1.31252670288086
0.292290598154068	0.913895189762115	0	0.562280297279358	2.24614596366882	0	0.922552406787872	0.569422841072083	3.9694037437439	0	0
5.51147747039795	0	0	24.5125293731689	2.51623702049255	0.749420464038849	1.18910121917725	7.30314874649048	85.0902481079102	87.0631637573242	172.085632324219
12.1490440368652	0.848416566848755	0	116.80387878418	7.61819648742676	0.224674627184868	3.70646500587463	4.33251714706421	119.247627258301	3.32191061973572	14.5006885528564
9.29788112640381	0	0.00857405550777912	52.685489654541	7.71765899658203	0	4.63338279724121	3.72829222679138	105.356651306152	16.8475666046143	0
3.88661026954651	0	0	18.7406768798828	7.40960073471069	0	0	1.37910139560699	53.5458450317383	6.59078741073608	2.53365731239319
35.6170082092285	0.118475437164307	1.01875853538513	51.8253593444824	79.8032760620117	4.32336378097534	11.1898078918457	17.8407535552979	89.569221496582	6.53904056549072	7.53715229034424
11.4766044616699	0	2.40838861465454	85.0870742797852	227.612121582031	0	78.6997756958008	50.9299850463867	159.323959350586	2.56662797927856	21.3012676239014
12.0016946792603	1.60190665721893	0	30.6919574737549	53.9015998840332	2.1505126953125	3.97634053230286	36.7282524108887	112.370681762695	50.4103202819824	4.96491813659668
48.9837760925293	0	1.67340564727783	42.3429679870605	22.4939994812012	2.03542542457581	20.050573348999	10.374903678894	141.830902099609	59.6271629333496	70.585090637207
16.2456607818604	0	66.8926010131836	102.748229980469	46.4239654541016	0	4.10699415206909	0	188.929931640625	114.200630187988	299.450286865234
17.4721698760986	0	33.3798789978027	84.4814834594727	5.02822208404541	0.151253461837769	2.89862036705017	0.229839473962784	201.003524780273	15.8257293701172	201.094818115234
6.24875736236572	0.203418627381325	0	13.0432300567627	0	1.33562529087067	54.5836219787598	0	737.999755859375	0	0.0228895433247089
15.8555564880371	0.721172690391541	0.153968706727028	156.95231628418	130.375930786133	0	0.341028898954391	1.28311049938202	229.524917602539	12.4409265518188	0.692080616950989
13.5507955551147	0	1.99342751502991	49.3536071777344	9.69892692565918	3.65228080749512	0	1.5959939956665	97.9715957641602	0	54.3262672424316
4.71371650695801	0	0.689755499362946	15.7688341140747	2.42597484588623	3.02463889122009	0	6.46794033050537	14.3560552597046	7.51401901245117	2.14325094223022
0.949573934078217	2.56532382965088	2.44883179664612	29.7453575134277	0.989303052425385	1.00729262828827	0.316639304161072	5.00266361236572	203.29345703125	108.149909973145	128.294372558594
11.3399648666382	2.50113797187805	0	43.0608520507812	26.9299964904785	1.36338090896606	0	1.68938159942627	71.558952331543	13.1893882751465	1.0596410036087
10.7874345779419	0	1.5394721031189	51.6743278503418	29.3422889709473	0.993305861949921	0	8.4127025604248	102.08650970459	8.9512300491333	1.82172203063965
3.3770055770874	0	0	24.2368907928467	10.0348682403564	0.590521335601807	5.79704618453979	1.07468008995056	42.221435546875	8.1072473526001	2.60686707496643
2.37537527084351	0	0.954240143299103	29.0511322021484	2.51532697677612	0	0	3.51971530914307	34.4320945739746	9.95495128631592	7.92958545684814
6.5847225189209	2.62489891052246	0	16.6173057556152	7.17083072662354	0.189253568649292	3.47727346420288	4.25170660018921	60.8860168457031	10.2177000045776	2.73290491104126
9.03322601318359	0	0	21.1346397399902	17.1958198547363	0	1.28731274604797	3.90592551231384	58.5679054260254	7.61699676513672	0.410597175359726
6.55532598495483	0.501081347465515	0	14.6235151290894	19.5739898681641	0	3.69043374061584	0.0875130593776703	57.6196937561035	0	0.458117574453354
1.81101155281067	0	0	31.2247066497803	24.0433349609375	0	3.55440545082092	2.03657507896423	88.247932434082	0	1.16697013378143
12.5919923782349	0	1.88833844661713	107.400680541992	1.70713639259338	0.174066141247749	0.120802856981754	0	345.957305908203	100.933586120605	244.291641235352
18.6987342834473	0.0609114319086075	0	37.2760848999023	28.1550369262695	0	0.220152452588081	7.69725704193115	69.037239074707	4.67730665206909	3.19161152839661
0.685079753398895	0.0669645965099335	0	2.22392106056213	1.12272727489471	0.758866667747498	3.36150074005127	2.08900737762451	13.9710597991943	0	1.91884970664978
10.7763032913208	0	0	42.7448310852051	28.2265205383301	0	1.27577519416809	6.31241750717163	37.4064178466797	11.9260416030884	2.95371198654175
27.9413661956787	0	96.0980911254883	91.330078125	58.6285591125488	0	19.2316150665283	4.47204446792603	311.759429931641	27.6401557922363	76.6171417236328
15.4573516845703	0	0	101.648643493652	24.5846652984619	0	5.00925636291504	5.10444736480713	61.835693359375	10.3314800262451	4.30760955810547
26.9837303161621	0.273086071014404	0	90.2045135498047	8.6322135925293	0	3.50768709182739	12.3367958068848	66.1959533691406	18.4733486175537	11.3648252487183
7.6571102142334	1.8139408826828	0.658657491207123	48.4409523010254	0.682539761066437	0	111.057922363281	5.48564386367798	188.721389770508	5.12646007537842	0.228591084480286
2.95664739608765	0.123696833848953	0	0.0935294479131699	1.57125806808472	0	1.79700887203217	0	9.97858142852783	0.030143178999424	0.0711075589060783
23.4352207183838	0	0	26.7526435852051	17.717399597168	0.870646297931671	10.9895763397217	10.2539844512939	34.5334930419922	16.7958011627197	4.47656488418579
34.9885063171387	0	0.303037792444229	127.798332214355	124.140892028809	5.06710195541382	22.780689239502	15.8158693313599	157.857864379883	18.2404708862305	14.8825235366821
3.80015754699707	1.47372663021088	177.039749145508	80.221076965332	2.32106161117554	0.402733385562897	0	2.75285315513611	127.62629699707	17.4409637451172	102.174499511719
25.6636810302734	3.53567481040955	0	99.7438583374023	4.2289662361145	0.630073547363281	1.2810583114624	9.23580455780029	276.797546386719	23.3733539581299	51.4908294677734
14.4653644561768	0	0.687260627746582	9.28408527374268	13.0103282928467	0	0.101025588810444	0	22.6451625823975	1.1250307559967	1.12905764579773
20.9255352020264	0	1.16039705276489	42.9226036071777	39.4826622009277	0	3.73408722877502	7.96909475326538	71.6794052124023	2.18131971359253	1.25038731098175
2.11011743545532	0	0	13.4032983779907	0.450786709785461	0	5.55380868911743	11.3074960708618	31.0738945007324	2.67387199401855	3.98522877693176
9.63822364807129	0	1.3247983455658	106.018333435059	118.009773254395	0	2.70371747016907	4.2482476234436	330.204772949219	3.19267106056213	21.9207134246826
0	2.77338915721792e-15	0	22.8625030517578	6.6064510345459	0.134308218955994	5.59537220001221	16.9006214141846	116.948196411133	4.57062864303589	1.39218425750732
9.17096138000488	3.0821316242218	0.863035798072815	27.5505905151367	84.6829223632812	3.96016263961792	5.57813787460327	2.01310229301453	93.1564254760742	14.9751100540161	1.80184483528137
6.86940336227417	2.69308495521545	0	35.4180908203125	16.5458316802979	0	0.362548351287842	0	60.4149131774902	9.75636577606201	1.61041843891144
13.4323787689209	0.35851588845253	0.273697674274445	51.331371307373	34.2762603759766	0	36.3396759033203	2.59660148620605	111.6435546875	18.5324268341064	0.71781200170517
0.053123451769352	0.382844746112823	0.186768755316734	2.47962975502014	3.40123152732849	0.550536751747131	1.75207424163818	0.633023083209991	13.6648101806641	0	2.21753621101379
6.97609710693359	1.939288854599	126.67391204834	164.278335571289	32.6337089538574	8.47570610046387	13.4055213928223	43.0435256958008	151.729888916016	22.2990207672119	306.887298583984
11.2072706222534	0	0	30.8765335083008	8.38503551483154	0	3.94128346443176	0	41.9009323120117	6.70035600662231	0
2.78800249099731	0	0	50.6463356018066	22.5624523162842	2.54416966438293	1.88502502441406	13.3182439804077	66.4345016479492	10.7846002578735	2.32168745994568
6.45181369781494	0	0	5.99769926071167	5.36367988586426	0.351035058498383	0.170835644006729	1.37030458450317	29.5543193817139	6.23394727706909	0
21.1239128112793	7.20597076416016	6.20201921463013	198.78776550293	6.26227903366089	0	4.82890796661377	0	443.832580566406	78.5705871582031	461.875335693359
3.97637534141541	0	0	14.8644618988037	5.33429718017578	1.23530745506287	3.88021087646484	0.876600980758667	14.335262298584	3.27499675750732	0.627314329147339
8.63417911529541	0	172.578018188477	172.310531616211	8.92683029174805	0	3.82248878479004	0.9932461977005	298.085144042969	14.3105545043945	281.869750976562
11.2507963180542	0	0.343334585428238	13.2859163284302	13.7689781188965	0	2.64297699928284	7.37285470962524	72.9060516357422	6.09558963775635	2.03425240516663
5.27583885192871	0.405591726303101	1.17129826545715	11.4508180618286	18.8872337341309	0	3.6910982131958	0	69.3453826904297	9.34738159179688	3.78583478927612
5.75345373153687	0	0	11.9828643798828	5.49936580657959	0.507002055644989	1.692014336586	4.72441530227661	55.3001480102539	4.9613995552063	2.55741548538208
3.47070026397705	0	0	14.8882884979248	2.02601957321167	0.655035734176636	3.32141137123108	5.71421957015991	35.3487167358398	0.223358109593391	1.16574025154114
8.27628231048584	0	1.87666654586792	4.30820989608765	1.71634197235107	3.01900029182434	4.10515785217285	0.371038377285004	3.03273367881775	5.27441835403442	6.77052879333496
6.35035037994385	0.995150029659271	1.6179496049881	26.0183753967285	0.0916897729039192	1.39598727226257	0	1.02930736541748	61.898193359375	24.076566696167	0.0794086009263992
12.50657081604	0	0	2.34936571121216	7.96376514434814	0.367132097482681	1.82911801338196	2.09430289268494	3.26330590248108	0	0.0103883855044842
21.4276943206787	1.93434596061707	0.132291033864021	47.6917495727539	26.5693187713623	1.15872657299042	0.695148706436157	0	102.960182189941	1.24596679210663	2.0650782585144
4.22299814224243	0.311124682426453	0	0	0.413646399974823	0	3.26088047027588	0.218004614114761	1.14346134662628	0	0.60745108127594
2.87891101837158	0	0	1.28920328617096	0	0	0	4.34867238998413	7.15188884735107	3.45020413398743	0
15.5619955062866	0	0	69.4446716308594	63.5734786987305	1.25051188468933	6.6043553352356	3.68603610992432	91.3306732177734	13.0477085113525	8.47948932647705
12.6592626571655	0	13.2536754608154	59.1079330444336	4.03985929489136	0.649679005146027	0	0	141.713043212891	0.906715214252472	10.8878440856934
2.62797999382019	0	0	3.56438493728638	0	0	0	5.8634557723999	1.75294435024261	2.32908153533936	5.10791444778442
6.87338542938232	1.39089441299438	0	47.6468315124512	38.9277458190918	0.705780625343323	158.063735961914	4.72916078567505	93.6088180541992	7.36493158340454	1.91039097309113
39.1344909667969	1.60962355136871	0	63.1535491943359	61.6159820556641	8.02860450744629	26.8294143676758	27.4368267059326	174.557006835938	18.6883354187012	20.8985977172852
18.2140502929688	0.585231840610504	0.677779197692871	155.445129394531	143.133285522461	0.0515738688409328	6.67335987091064	17.2878379821777	154.098556518555	23.7612419128418	6.63980436325073
0.815926551818848	0.612146496772766	0	4.88486099243164	1.16027748584747	1.00815391540527	1.26089358329773	1.06013286113739	66.6318435668945	1.39222741127014	0.13776883482933
1.79821801185608	0.544327318668365	0	3.01588606834412	0.898230493068695	4.26130723953247	6.29245281219482	0	41.4963340759277	1.91231405735016	0
55.6536903381348	0	0	273.883819580078	363.904693603516	0.0122428443282843	30.0632286071777	0	1024	0	0.305635869503021
3.97034883499146	0	0	29.9809913635254	7.61377811431885	0	0.741300046443939	0.618731617927551	61.3702125549316	14.8755865097046	4.5115442276001
43.2328910827637	1.45385599136353	2.39185094833374	170.834136962891	0.907707929611206	164.465896606445	0	29.2792224884033	122.385429382324	26.5783405303955	51.9708633422852
169.748901367188	5.63362789154053	3.62091827392578	403.993957519531	2.96739840507507	44.3728904724121	21.5948848724365	46.6809425354004	393.873107910156	14.2884063720703	371.250549316406
4.45992231369019	0.666001260280609	0	18.2720603942871	38.097469329834	0	6.35600757598877	3.08835339546204	28.7794151306152	9.82779502868652	0
9.36872947931988e-06	0	0	20.7361965179443	6.34831476211548	0	14.3136215209961	2.05546569824219	118.230926513672	16.4419021606445	0.520033240318298
10.9047183990479	1.98416686058044	0.817259252071381	32.461971282959	44.272331237793	0.928743124008179	2.32256770133972	5.78123950958252	47.7946662902832	32.1069374084473	0.0593830868601799
3.37129497528076	0	0.554947674274445	0	0.00918570440262556	0	0.0963661596179008	0	3.73407125473022	0.43194717168808	0
6.61494398117065	1.1071720123291	0.33148005604744	7.41350698471069	41.40087890625	0	0.208877548575401	2.58943891525269	47.3473052978516	0	1.17269575595856
4.78406047821045	0	0	17.4332313537598	1.2821763753891	0.877292037010193	0.99243837594986	1.57764267921448	11.4493141174316	2.14617824554443	0.513579845428467
10.1198921203613	0	97.738655090332	58.1115837097168	0.646523058414459	3.81367802619934	6.08774089813232	8.08073329925537	129.331924438477	79.579963684082	182.826293945312
3.18823075294495	0	0	3.11716413497925	8.78141689300537	0	1.53388559818268	0.206769973039627	25.3930149078369	0	18.6217842102051
1.07256925106049	0.150004014372826	53.8788185119629	68.1713714599609	16.0517349243164	2.7656147480011	6.48177433013916	0	90.2607650756836	200.052490234375	193.820816040039
1.06022429466248	0	0	15.9721488952637	4.86430311203003	0	1.81461715698242	0	77.4712905883789	13.6621932983398	7.04285144805908
7.61257982254028	0.441408276557922	171.762741088867	67.4633255004883	32.8253021240234	8.31160736083984	18.5400333404541	10.2494640350342	82.0541839599609	30.7467842102051	70.6246643066406
23.1214408874512	0.747990608215332	0.257964611053467	62.969970703125	11.9032363891602	1.4731183052063	10.4325094223022	9.73961925506592	75.9027328491211	14.1838493347168	7.56459045410156
6.64616394042969	0	0	36.5647621154785	36.213996887207	0	1.78873658180237	0	87.6040267944336	0	0.0553794205188751
10.4544477462769	0	0	29.9782524108887	3.77849912643433	0.312522172927856	2.91132044792175	0	84.9977035522461	4.01842308044434	2.12581062316895
13.3114404678345	0	0.709092974662781	7.45767545700073	8.08969306945801	0	1.39742505550385	0	28.3114070892334	3.96625804901123	0.221269473433495
0.866044819355011	1.8308265209198	351.680023193359	158.85725402832	19.6873664855957	0.481426537036896	13.5986185073853	11.9894609451294	376.566772460938	23.6381225585938	175.326293945312
4.62802839279175	0	0	24.8418350219727	4.2358922958374	0	1.97543454170227	4.97225618362427	48.9810485839844	17.1947803497314	1.59663069248199
9.66672897338867	4.31909275054932	0	17.8680744171143	14.4157705307007	2.23075795173645	3.85163521766663	1.80409109592438	36.2010612487793	14.4531364440918	5.7274956703186
14.9832201004028	0.328870832920074	2.05980181694031	72.4288024902344	5.38725757598877	0	3.38721227645874	5.39212036132812	47.5201110839844	0	333.996215820312
2.69248104095459	0	0	3.03561735153198	2.56038498878479	0	2.98845958709717	4.08585500717163	21.3539695739746	0	3.14063167572021
8.38283824920654	0	0	45.7987785339355	21.0681705474854	3.41788792610168	1.33217442035675	6.6703462600708	68.2025527954102	15.9537324905396	1.53360891342163
3.57787942886353	0	0	36.2668609619141	18.3692188262939	0	9.37394332885742	1.7612920999527	74.9839096069336	3.08605265617371	2.35441136360168
15.6803274154663	0	0	33.9881858825684	21.8343372344971	0.797211050987244	0.840762674808502	2.0873749256134	36.0905342102051	3.15063261985779	1.18118798732758
22.0252246856689	1.78872585296631	0	182.34147644043	34.8645286560059	0	20.8797149658203	0	353.980346679688	12.0943899154663	1.46362936496735
1.40587878227234	0.441093891859055	0.443359136581421	7.23565006256104	2.65708780288696	0	2.17760872840881	6.75380849838257	52.4215698242188	2.73010635375977	5.77448892593384
3.4341230730206e-06	0.498398065567017	0	1.5196430683136	0.364632159471512	0	3.47214412689209	1.89652216434479	12.2066841125488	0.24039888381958	2.45697021484375
24.5049781799316	0	0	25.391284942627	1.05740058422089	1.22652220726013	5.01245260238647	5.55109977722168	21.557186126709	6.66900730133057	2.14649176597595
5.58854225118921e-08	0.262152850627899	0	22.6588249206543	33.2175254821777	0	1.21762084960938	0	87.4497222900391	2.38540029525757	0.12269801646471
11.3609294891357	0.492517828941345	0.782490611076355	17.0206546783447	7.30610704421997	0.321725815534592	2.60864043235779	0	72.4623641967773	0	0
12.2616481781006	0.395800411701202	0	70.5345153808594	11.6569681167603	0	4.23128938674927	0.418112814426422	71.553092956543	11.8610200881958	3.58106732368469
12.248345375061	0	0.935514509677887	45.7517204284668	30.5621032714844	0.668038427829742	2.38447833061218	0.959060072898865	89.5915908813477	4.76215839385986	7.5454797744751
6.6604700088501	1.11419928073883	0.89145302772522	48.9479370117188	9.80950164794922	0	0.484244585037231	9.19263362884521	94.2851638793945	3.00164079666138	1.93873405456543
9.00924015045166	0.878371238708496	0	7.62594604492188	12.1875801086426	7.94391059875488	5.44036149978638	1.97893297672272	21.6887073516846	4.28840827941895	6.21314859390259
4.40689849853516	0.0837791040539742	0.288890779018402	6.59261131286621	6.63384532928467	1.80464506149292	0.0669077783823013	0	11.9425888061523	3.38512945175171	3.39916968345642
12.7327270507812	0.0857210084795952	2.95644617080688	109.556465148926	136.669784545898	1.44629669189453	4.44988632202148	6.24990081787109	316.230834960938	27.865795135498	3.64760947227478
7.54696416854858	0.223000183701515	0.141393914818764	27.5925483703613	6.71004676818848	0.412722229957581	2.47205924987793	2.13595938682556	27.6189346313477	4.86419534683228	0
9.09630393981934	2.96642279624939	67.7594757080078	73.1087341308594	9.23467636108398	2.20763063430786	3.85097408294678	3.44781303405762	25.6264095306396	2.00628852844238	158.092315673828
14.779275894165	0	1.55116212368011	28.3585681915283	3.05807113647461	0	3.34789061546326	3.55638694763184	69.9629058837891	8.61697006225586	9.84892177581787
4.31712818145752	1.21120393276215	0	23.3632354736328	31.4423542022705	0	2.18964767456055	3.56272864341736	50.0866546630859	3.21504521369934	3.38575339317322
4.80936479568481	2.97951936721802	0	40.7545394897461	69.1872406005859	0	0.953002572059631	0.967725038528442	106.414436340332	2.32077884674072	0
35.2166786193848	0	0	70.349365234375	14.7073812484741	7.33987617492676	7.90977096557617	13.381386756897	150.90544128418	8.54549789428711	1.46518266201019
16.8241729736328	0.326385617256165	0	40.4215660095215	24.6117210388184	2.09182500839233	6.88219881057739	6.51970434188843	74.1855773925781	5.32766342163086	6.28978776931763
7.77043390274048	5.35499811172485	0	14.6776189804077	6.18589878082275	0.987678945064545	4.13411140441895	0.284491240978241	37.5967636108398	0	11.2122459411621
6.43310880661011	3.78950166702271	0.900656342506409	50.207145690918	26.6968574523926	0.331741183996201	6.21837282180786	5.79825735092163	66.1317672729492	3.11795854568481	4.98746871948242
8.39336681365967	0.659783780574799	0	15.6195936203003	16.8951148986816	0.20234651863575	4.71740341186523	0	89.1852416992188	7.10917234420776	0.508930027484894
6.45127964019775	0	0	27.3449420928955	27.8493995666504	1.32914185523987	1.70686531066895	1.21971106529236	66.0070495605469	0.449986636638641	2.0611298084259
3.6151704788208	0	0.663358688354492	15.4652070999146	35.0735130310059	0	4.15754652023315	0	33.3304672241211	8.49709796905518	2.2990505695343
27.9895439147949	3.1075267791748	556.142272949219	267.298858642578	35.306770324707	3.217045545578	11.3626623153687	9.34772968292236	482.613128662109	17.1273097991943	256.785705566406
2.93927717208862	0	0	18.2803821563721	51.039623260498	1.70616984367371	1.20921683311462	0.648099064826965	58.0294036865234	2.46455001831055	0.24699766933918
20.8861446380615	3.97253274917603	0	51.1241760253906	2.492511510849	88.2853240966797	3.34588313102722	7.53508377075195	100.00186920166	14.8830127716064	85.3420257568359
14.3808679580688	0.572221398353577	0	27.1279296875	3.50870370864868	0.0706171840429306	5.69096231460571	0	69.2305908203125	7.01194953918457	1.70050656795502
9.11605358123779	0	0	13.7791013717651	15.0132207870483	0	0.886823713779449	0.548104345798492	45.1521072387695	2.89551591873169	0.660772383213043
0.271828085184097	0	0	0.04549365863204	0.383152723312378	0	1.78804039955139	0	6.33132648468018	0	0
1.30704736709595	0	0	12.1057863235474	4.74136638641357	10.022479057312	4.85659551620483	4.09614515304565	38.3621520996094	10.5838441848755	33.0525779724121
2.97163248062134	3.50024461746216	0.480477631092072	26.9425582885742	6.31886768341064	0.107587218284607	0.572750389575958	9.11397933959961	47.5562705993652	2.84973526000977	19.0320491790771
8.31354808807373	2.93359780311584	1.48520076274872	30.4684715270996	24.5195713043213	0	5.98740434646606	0	91.8325805664062	14.0489339828491	2.73298501968384
13.3927640914917	1.61240148544312	0	7.99762725830078	19.4541416168213	2.21655082702637	3.7624614238739	2.19335746765137	33.2914924621582	3.22050142288208	0
20.8788833618164	0	0	38.6403274536133	4.10238885879517	0	2.49187207221985	1.69200789928436	87.4560165405273	10.0303802490234	6.23953342437744
10.2191438674927	2.126060962677	0	31.4339408874512	10.4538135528564	0.743796050548553	1.8558703660965	4.36274242401123	81.9956970214844	12.0748929977417	2.88785576820374
7.55280828475952	0	0	30.2248668670654	27.7887802124023	0	4.19312810897827	1.00278294086456	101.72590637207	6.11031007766724	1.92134916782379
57.0242767333984	1.45691084861755	0	33.7374076843262	30.5813255310059	0	5.17164134979248	9.91890811920166	73.727409362793	6.47809839248657	0
2.18516245098499e-08	0	0	1.35868549346924	0	0	0	2.59118700027466	7.48779773712158	0	2.25592398643494
0.401978611946106	0	0	31.2771453857422	0	4.78393697738647	1.10221910476685	0	79.5707550048828	4.38231420516968	48.1512870788574
15.4957427978516	1.3656690120697	0	91.5822601318359	109.606727600098	0	25.6474266052246	12.2884826660156	267.867736816406	65.4473114013672	6.51355409622192
4.32658624649048	0.26811745762825	0	24.0026054382324	2.57397246360779	0	0.741713047027588	0	39.2744522094727	1.91642415523529	0.994210600852966
8.19045543670654	0	0	60.4978561401367	25.3893775939941	0.147331401705742	3.15178108215332	1.7582665681839	101.185180664062	0	2.08469748497009
1.84187638759613	0	0	0	3.33001255989075	0	0	0	3.7895770072937	0	0
8.89990520477295	1.41474866867065	0	3.76594495773315	8.38452529907227	0	1.34222996234894	0.219976589083672	13.7300004959106	0.0265162922441959	0
6.92634010314941	5.642165184021	0	13.3473510742188	4.23852062225342	0	0	0	18.5009708404541	13.7850170135498	9.67391014099121
2.04660964012146	0.841140568256378	1.74007523059845	69.6445007324219	70.1891174316406	0	2.71818852424622	2.4398090839386	121.248718261719	0.564448297023773	7.04420852661133
8.76844024658203	0	0	4.72052526473999	5.24051713943481	0.500895202159882	1.52141761779785	1.52586305141449	31.6798725128174	1.26240825653076	2.02459192276001
2.76921606063843	0.894986629486084	0	47.073673248291	75.6081314086914	1.69482910633087	1.47308433055878	8.29136371612549	55.5171318054199	8.87882041931152	5.1681113243103
2.98319482803345	0	0.33265632390976	9.73843097686768	15.9543485641479	2.47545146942139	2.39996981620789	0	48.7643814086914	8.93665885925293	1.50410377979279
26.2467670440674	0	64.4509963989258	205.759567260742	74.0665283203125	2.88074564933777	23.0987567901611	7.5955491065979	358.187438964844	122.61092376709	165.150695800781
0.713573098182678	0.556800007820129	0	15.4110641479492	8.62089729309082	0	4.52531099319458	3.57971000671387	47.1205406188965	3.10894441604614	1.53052604198456
0.444713830947876	0	0.529498696327209	71.9520645141602	1.90898406505585	0	2.32453417778015	6.19494915008545	79.8121185302734	42.6828918457031	1.15901339054108
10.7836675643921	0	0	37.2044372558594	34.8644752502441	0.348249346017838	4.85801553726196	4.34852170944214	75.6414947509766	4.06505393981934	2.28441166877747
18.9540157318115	1.81594216823578	0	56.9807090759277	21.7853298187256	4.7273736000061	4.97491407394409	4.8457670211792	149.051956176758	8.62825393676758	5.74151611328125
4.04576444625854	0.373541444540024	0	18.377950668335	37.7886924743652	1.71511423587799	1.5903377532959	0	62.4384613037109	3.14497113227844	1.82020962238312
11.3078098297119	2.44496178627014	21.8928089141846	139.11589050293	1.63114666938782	0.740623474121094	2.69955372810364	6.63215017318726	265.405029296875	44.0587615966797	132.992065429688
44.0999755859375	0	0	310.447845458984	141.610885620117	0	9.24894428253174	23.8617839813232	468.6513671875	0	0.792202055454254
41.4147644042969	0.71914005279541	0	103.247734069824	49.3147354125977	3.51354169845581	2.96971940994263	16.3169593811035	74.9136734008789	18.4666938781738	0.959108233451843
2.80576825141907	0.735062479972839	0	22.3532466888428	15.2035026550293	0.148190915584564	3.16341161727905	3.41200590133667	28.5574016571045	4.7805233001709	0
12.2659254074097	0.060655664652586	0	54.552001953125	38.9450302124023	0.551865518093109	3.41836094856262	3.70738887786865	29.7163772583008	6.2549090385437	1.38822817802429
1.25247704982758	0.771957814693451	0	5.20729446411133	2.87721586227417	0	0	0	41.9129943847656	8.51480197906494	1.37983739376068
1.57578611492681e-07	0	0.620457768440247	0	0.974996209144592	0.660844564437866	0	0	1.06843256950378	1.82152283191681	0
36.9275436401367	1.16708469390869	0.434082090854645	92.7799301147461	16.9916648864746	0	3.58210062980652	8.87939739227295	79.8962783813477	1.44440710544586	2.39492058753967
11.6891202926636	0.197364121675491	0.430510014295578	30.285623550415	4.37276268005371	2.93075489997864	2.80057072639465	7.76304197311401	48.8904304504395	0.916020810604095	0
18.7509250640869	0	0	39.4242858886719	68.8337097167969	0.0101422658190131	2.10594582557678	8.91640758514404	91.0603332519531	18.8890533447266	1.47139298915863
8.81154632568359	0	0	25.4185810089111	0.57556676864624	2.20816373825073	2.38178777694702	0.237872809171677	28.2095031738281	10.8607215881348	5.64023733139038
16.3486919403076	3.42421269416809	114.488746643066	43.1403923034668	23.7439289093018	2.0228807926178	5.18252182006836	8.82080173492432	98.4406127929688	61.4206695556641	16.0226230621338
9.78227233886719	0.25650954246521	0.70758992433548	15.6274642944336	11.3803176879883	0.416729807853699	0	0	22.4058856964111	1.77911281585693	1.57417511940002
0.935446500778198	0	0	7.57620811462402	0.517137587070465	0	14.5001697540283	0	34.8886566162109	2.95087432861328	1.81775557994843
3.44077634811401	0	1.23089003562927	28.7433929443359	1.74629497528076	0	2.96312999725342	0	83.8904037475586	9.93895244598389	0
36.6525497436523	4.1273045539856	0	86.7409515380859	29.8206806182861	156.10578918457	40.6380386352539	23.6492195129395	228.316848754883	21.3596210479736	61.4759063720703
9.45039367675781	2.64590549468994	0	37.9400100708008	35.2672004699707	3.00872111320496	4.66972970962524	0	66.9477767944336	7.45334148406982	2.73713088035583
1.53334522247314	0	3.26920056343079	18.3526401519775	4.99964714050293	0	3.0049934387207	0.403698861598969	34.7761878967285	1.32051730155945	1.82632350921631
64.2896499633789	0	1.06560814380646	58.856876373291	21.3289775848389	4.48456430435181	17.1362934112549	16.0644187927246	168.966461181641	15.4181995391846	7.46036720275879
16.1331901550293	0	0	13.6194410324097	8.86191082000732	0.375255256891251	1.70190250873566	0.466518640518188	11.5610666275024	0.890408992767334	0.0305369850248098
55.3171882629395	1.19820833206177	0	45.3393707275391	54.4168891906738	2.407954454422	11.0295314788818	6.35032224655151	136.625991821289	10.1920013427734	45.7719306945801
